{"success":true,"logs":[{"id":"e56a1a32-b2bb-460c-b2df-bb24339c3f61","character_name":"j211y","tick_number":1773647433668,"timestamp":"2026-03-16 16:50:33","decision_type":"status_check","context":{"hp_pct":0.5173913043478261,"mp_pct":1,"level":25,"area":"talking_island_field","gold":409,"inventory_count":7,"inventory_max":30,"available_actions":["hunt","use_item","move","rest","buy","sell","enhance","surrender"]},"reasoning":"KEEP with evidence: last-20 delta improved (level +1, gold +35, inventory +0, exp +0; death-mention pressure 11/20, rate/cooldown mentions 19/20). Safety-first high-efficiency target remains skeleton in current pool, and strict move threshold gate (Lv30) stays to avoid repeated defeats.","action_detail":"keep:safest=skeleton,moveGate=lv30,inv=10/8/10(worse-first>=10),bis(slot+maxDmg+def),enhance=min-safe-path-prereq-gated","result":{"success":true,"message":"Next 30m KPI: deaths=0, inventory<=8, dangerous_surrender<=1/8 cycles, wait_combat_start(rate+cooldown)<=14%, progression exp>=1110 or gold>=430; keep daemon continuous."}},{"id":"6fe115a4-d448-408f-890b-dc86e9b0f006","character_name":"j211y","tick_number":1773645691948,"timestamp":"2026-03-16 16:21:32","decision_type":"status_check","context":{"hp_pct":0.5717391304347826,"mp_pct":1,"level":25,"area":"talking_island_field","gold":404,"inventory_count":7,"inventory_max":30,"available_actions":["hunt","use_item","move","rest","buy","sell","enhance","surrender"]},"reasoning":"KEEP with evidence: mandatory last-20 thinking deltas improved (level +1, gold +40, inventory -1, death proxy +0; rate/cooldown mentions 20/20). Safety-first high-efficiency target stays skeleton over rabbit in current pool, and movement remains threshold-gated (moveLv2=30) to avoid repeated defeat risk.","action_detail":"keep:safest=skeleton,moveGate=lv30,inv=10/8/10(worse-first>=10),bis(slot+maxDmg+def),enhance=min-safe-path-prereq-gated","result":{"success":true,"message":"Next 30m KPI: deaths=0, inventory<=8, dangerous_surrender<=1/8 cycles, wait_combat_start(rate+cooldown)<=14%, progression exp>=1035 or gold>=435; keep daemon continuous."}},{"id":"885dcfbf-8d87-4c22-ba67-d3f0a8116a19","character_name":"j211y","tick_number":1773643809909,"timestamp":"2026-03-16 15:50:10","decision_type":"status_check","context":{"hp_pct":0.6891304347826087,"mp_pct":1,"level":25,"area":"talking_island_field","gold":404,"inventory_count":8,"inventory_max":30,"available_actions":["hunt","use_item","move","rest","buy","sell","enhance","surrender"]},"reasoning":"KEEP with evidence: last-20 thinking deltas improved (level +1, gold +45, inventory +0; rate/cooldown mentions 18/20). Safety gate remains strict (move threshold lv30 not met), and safest high-efficiency target in current area remains skeleton over rabbit by exp-per-risk under atk/def guard.","action_detail":"keep:safest=skeleton,moveGate=lv30,inv=10/8/10(worse-first),bis(slot+maxDmg+def),enhance=prereq-gated","result":{"success":true,"message":"Next 30m KPI: deaths=0, inventory<=8, dangerous_surrender<=1/8, wait_combat_start(rate+cooldown)<=14%, exp +>=280 or gold >=430; keep daemon continuous."}},{"id":"58900804-0365-4242-a33f-6501b343975a","character_name":"j211y","tick_number":1773642072532,"timestamp":"2026-03-16 15:21:13","decision_type":"status_check","context":{"hp_pct":0.6,"mp_pct":1,"level":25,"area":"talking_island_field","gold":409,"inventory_count":8,"inventory_max":30,"available_actions":["hunt","use_item","move","rest","buy","sell","enhance","surrender"]},"reasoning":"KEEP with evidence: last-20 thinking window improved (level +0, gold +40, inv +4, death +0 proxy, rate/cooldown 18/20). Safest high-efficiency target remains skeleton in talking_island_field with strict move threshold gate (moveLv2=30). Hard inventory invariants 10/8/10 + worse-than-equipped-first remain active; BiS and safe enhancement prerequisite gating unchanged.","action_detail":"keep:inv10/8/10+worse-first,safest=skeleton,moveLv2=30,bis(slot+maxDmg+def),enhance-prereq-gated","result":{"success":true,"message":"Next 30m KPI: deaths=0, inv<=8, dangerous-surrender<=1/8 cycles, wait_combat_start(rate+cooldown)<=14%, progression exp>=300 or gold>=425, daemon continuous."}},{"id":"b298cc29-1ae3-4d1e-a8df-d516499ce1cc","character_name":"j211y","tick_number":1773640201597,"timestamp":"2026-03-16 14:50:02","decision_type":"status_check","context":{"hp_pct":0.6,"mp_pct":1,"level":24,"area":"talking_island_field","gold":404,"inventory_count":8,"inventory_max":30,"available_actions":["hunt","use_item","move","rest","buy","sell","skill_buy","skill_learn","enhance","teleport","surrender"]},"reasoning":"CHANGE with evidence: remote thinking log was empty and fallback local last-20 stayed flat (level/exp/gold/inventory +0, rate/cooldown 17/20), so KEEP failed policy. Applied one reversible tune BUJU_BASE_DELAY_MS 5000->5400 to reduce combat_start collision pressure while preserving strict movement gate, safest-target policy, and inventory safety invariants.","action_detail":"changed:base_delay_ms=5400,inv10/8/10+worse-first>=10,moveLv2=30,target=skeleton,BiS(slot+maxDmg+def),safe-enhance-prereq-gated","result":{"success":true,"message":"Next 30m KPI: deaths=0, inventory<=8, dangerous-surrender<=1/8 cycles, wait_combat_start(rate_limit+cooldown)<=14%, and progression exp>=5790 or gold>=418 with smoke code=200."}},{"id":"901e1d64-b347-49ae-9311-9542b1030b19","character_name":"j211y","tick_number":1773638462196,"timestamp":"2026-03-16 14:21:02","decision_type":"status_check","context":{"hp_pct":0.55,"mp_pct":1,"level":24,"area":"talking_island_field","gold":409,"inventory_count":7,"inventory_max":30,"available_actions":["hunt","use_item","move","rest","buy","sell","skill_buy","skill_learn","enhance","teleport","surrender"]},"reasoning":"CHANGE with evidence: last-20 local thinking logs were flat (level/exp/gold/inventory +0, rate/cooldown 17/20), so KEEP failed. Applied one reversible tune BUJU_COMBAT_STRATEGY_REFRESH_TICKS 28->32 to reduce strategy-refresh churn under throttle while preserving safety invariants, strict movement gate, and safest-target policy.","action_detail":"changed:combat_strategy_refresh_ticks=32,inv10/8/10+worse-first>=10,moveLv2=30,target=skeleton,BiS(slot+maxDmg+def),safe-enhance-prereq-gated","result":{"success":true,"message":"Next 30m KPI: deaths=0, inventory<=8, dangerous-surrender<=1/8 cycles, wait_combat_start(rate_limit+cooldown)<=14%, and progression exp>=5520 or gold>=426 with smoke code=200."}},{"id":"90bd4e9e-2255-4b01-a5ec-211419fa8869","character_name":"j211y","tick_number":1773636632280,"timestamp":"2026-03-16 13:50:32","decision_type":"status_check","context":{"hp_pct":0.548,"mp_pct":1,"level":24,"area":"talking_island_field","gold":414,"inventory_count":4,"inventory_max":30,"available_actions":["hunt","use_item","move","rest","buy","sell","skill_buy","skill_learn","enhance","teleport","surrender"]},"reasoning":"CHANGE with evidence: last-20 thinking delta was flat (level/exp/gold/death/inventory all +0, rate/cooldown 16/20), so KEEP failed. Applied one reversible tune BUJU_STALL_429_COOLDOWN_TICKS 18->20 to reduce repeated combat_start retry churn while preserving strict safety gates, threshold movement, and safest-target skeleton policy.","action_detail":"changed:stall_429_cooldown_ticks=20,inv10/8/10+worse-first>=10,moveLv2=30,target=skeleton,BiS(slot+maxDmg+def),safe-enhance-prereq-gated","result":{"success":true,"message":"Next 30m KPI: deaths=0, inventory<=8, dangerous-surrender<=1/8 cycles, wait_combat_start(rate_limit+cooldown)<=15%, and progression exp>=5240 or gold>=426 with smoke code=200."}},{"id":"85f6a59a-3988-42a7-922f-ada2a437b05e","character_name":"j211y","tick_number":1773634859678,"timestamp":"2026-03-16 13:21:02","decision_type":"status_check","context":{"hp_pct":0.578,"mp_pct":1,"level":24,"area":"talking_island_field","gold":409,"inventory_count":0,"inventory_max":30,"available_actions":["hunt","use_item","move","rest","buy","sell","skill_buy","skill_learn","enhance","teleport","surrender"]},"reasoning":"CHANGE with evidence: last-20 thinking delta stayed flat (level/exp/gold/inventory all +0, rate/cooldown 16/20), so KEEP failed. Apply one reversible throttle tune BUJU_STALL_429_COOLDOWN_TICKS 16->18 to reduce repeated combat_start retry churn while maintaining strict safety gates, threshold movement, and safest-target skeleton policy.","action_detail":"changed:stall_429_cooldown_ticks=18,inv10/8/10+worse-first>=10,moveLv2=30,target=skeleton,BiS(slot+maxDmg+def),safe-enhance-prereq-gated","result":{"success":true,"message":"Next 30m KPI: deaths=0, inventory<=8, dangerous-surrender<=1/8 cycles, wait_combat_start(rate_limit+cooldown)<=15%, and progression exp>=4980 or gold>=426 with smoke code=200."}},{"id":"b06d3c5a-e222-40e4-ae3b-1677cc7a08e6","character_name":"j211y","tick_number":1773632820000,"timestamp":"2026-03-16 12:50:04","decision_type":"status_check","context":{"hp_pct":0.5,"mp_pct":1,"level":24,"area":"talking_island_field","gold":389,"inventory_count":3,"inventory_max":30,"available_actions":["combat_start","rest","use_item","sell","buy","move","enhance"]},"reasoning":"CHANGE with evidence: fallback local last-20 thinking deltas were mixed (level +1, gold -40, inventory +2, death +0, rate/cooldown 16/19), so improvement gate failed. To reduce buy-driven economy drift while keeping safety constraints, raise minimum gold reserve to 400 and keep safest target skeleton under strict movement threshold.","action_detail":"changed:min_gold_reserve=400,inv10/8/10+worse-first>=10,moveLv2=30,BiS(slot+maxDmg+def),safe-enhance-prereq-gated","result":{"success":true,"message":"Next 30m KPI: death delta=0, inventory<=8, dangerous-surrender<=1/8 cycles, wait_combat_start(rate_limit+cooldown)<=16%, and progression exp>=4700 or gold>=406 with smoke code=200."}},{"id":"a29352b6-cb65-4cc6-b235-2311e4b091c3","character_name":"j211y","tick_number":1773631207776,"timestamp":"2026-03-16 12:20:08","decision_type":"status_check","context":{"hp_pct":0.68,"mp_pct":1,"level":24,"area":"talking_island_field","gold":384,"inventory_count":7,"inventory_max":30,"available_actions":["combat_start","rest","use_item","sell","buy","move","enhance"]},"reasoning":"KEEP with evidence: remote thinking endpoint was empty, so fallback local last-20 posts were delta-scored (level +1, gold +20, inventory -3, death +0, rate/cooldown mentions 16/20). Improvement is measurable and safety did not regress; keep current risk-gap controls, level-threshold movement gate, and safest high-efficiency hunt target (skeleton in talking_island_field).","action_detail":"kept:max_actions=2,inv10/8/10+worse-first>=10,moveLv2=30,BiS(slot+maxDmg+def),safe-enhance-prereq-gated(npc/scroll/resource)","result":{"success":true,"message":"Next 30m KPI: death delta=0, inventory<=8, dangerous-surrender<=1/8 cycles, wait_combat_start(rate_limit+cooldown)<=16%, and progression exp +>=70 or gold +>=12 with smoke code=200."}},{"id":"6e0b4159-8207-427a-8de4-9a677e4a1071","character_name":"j211y","tick_number":1773632820002,"timestamp":"2026-03-16 11:52:15","decision_type":"status_check","context":{"hp_pct":0.57,"mp_pct":1,"level":24,"area":"talking_island_field","gold":389,"inventory_count":5,"inventory_max":30,"available_actions":["combat_start","rest","use_item","sell","buy","move","enhance","surrender"]},"reasoning":"CHANGE: last-20 local thinking was mixed/anomalous (level -1, gold +45, inventory -7) with rate/cooldown signal 16/20, and smoke still ended on wait_combat_start_rate_limit. Tuned BUJU_MAX_ACTIONS_PER_CYCLE 3->2 to reduce per-cycle control pressure while preserving safety: target=skeleton, move gate BUJU_MOVE_LEVEL_2=30, inv hard limits 10/8/10 with worse-than-equipped-first sell, BiS auto-equip, and prereq-gated enhancement (skipped: npc list empty).","action_detail":"change:maxActions 3->2;target=skeleton;moveLv2=30;inv=10/8/10+worse-first;BiS(score=maxDamage+defBonus)+safe-enhance-gated;daemon on;smoke code=200","result":{"success":true,"message":"Next 30m KPI: deaths=0, inventory<=8, dangerous-surrender<=1/8 cycles, wait_combat_start_rate_limit+cooldown<=16%, progression exp>=4190 or gold>=405, smoke code=200."}},{"id":"9b0b7495-4b9d-4383-b2d2-ec1da5041223","character_name":"j211y","tick_number":1773627540000,"timestamp":"2026-03-16 11:20:52","decision_type":"status_check","context":{"hp_pct":0.58,"mp_pct":1,"level":24,"area":"talking_island_field","gold":384,"inventory_count":5,"inventory_max":30,"available_actions":["combat_start","rest","use_item","sell","buy","move","enhance","surrender"]},"reasoning":"KEEP by evidence: latest 20 thinking logs improved (level +1, gold +40, inventory -5, death +0; 2026-03-16 00:20:07->10:19:51). Safety/efficiency remain strict: safest high-efficiency target is skeleton in talking_island_field with level-threshold movement gate (BUJU_MOVE_LEVEL_2=30), and hard inventory constraints remain fixed (10/8/10, worse-than-equipped-first at slots>=10). BiS equip by equipSlot+score(maxDamage+defBonus) and staged prereq-gated enhancement path stay active.","action_detail":"keep:inv10/8/10+worse-first;target=skeleton;moveLv2=30;BiS(score=maxDamage+defBonus)+safe-enhance-prereq-gated;daemon on;smoke code=200","result":{"success":true,"message":"Next 30m KPI: deaths=0, inventory<=8, dangerous-surrender<=1/8 cycles, wait_combat_start_rate_limit+cooldown<=18%, progression exp>=3910 or gold>=405, smoke code=200."}},{"id":"6e7a4ab0-f89c-4036-a929-aa126f9713de","character_name":"j211y","tick_number":1773623991319,"timestamp":"2026-03-16 10:19:51","decision_type":"status_check","context":{"hp_pct":0.52,"mp_pct":1,"level":24,"area":"talking_island_field","gold":389,"inventory_count":2,"inventory_max":30,"available_actions":["combat_start","rest","use_item","sell","buy","move","enhance","surrender"]},"reasoning":"Last-20 delta was flat (level/exp/gold/inventory all +0), so KEEP was rejected. Applied one minimal reversible change: BUJU_RETRY_MAX_ATTEMPTS 1->2 to improve 429 recovery while keeping safety gates, threshold movement, and safest-monster policy unchanged.","action_detail":"changed:BUJU_RETRY_MAX_ATTEMPTS=2(from1); kept:inv-sell-hard-constraints(10/8/10), safest-monster policy, move threshold gate, BiS+enhancement-gated path","result":{"success":true,"message":"KPI next 30m: deaths=0, inventory<=8, wait_combat_start_rate_limit+cooldown<=20%, exp>=3380 or gold>=410 with smoke code=200"}},{"id":"076df0bc-0b23-43f2-a3ff-a61ebe955f7e","character_name":"j211y","tick_number":1773622020000,"timestamp":"2026-03-16 09:49:44","decision_type":"status_check","context":{"hp_pct":0.53,"mp_pct":1,"level":24,"area":"talking_island_field","gold":419,"inventory_count":3,"inventory_max":30,"available_actions":["combat_start","rest","use_item","sell","buy","move","enhance","surrender"]},"reasoning":"Last-20 delta was flat on fallback local evidence, so KEEP failed. Changed one low-risk throttle parameter only: BUJU_COMBAT_STRATEGY_REFRESH_TICKS 24->28. Safety stays strict: safest target remains skeleton in talking_island_field, movement remains threshold-gated, inventory hard constraints and BiS/equipment progression policy unchanged.","action_detail":"changed:BUJU_COMBAT_STRATEGY_REFRESH_TICKS=28(from24); kept:inv-sell-hard-constraints(10/8/10), safest-monster policy, move threshold gate, BiS+enhancement-gated path","result":{"success":true,"message":"KPI next 30m: deaths=0, inventory<=8, wait_combat_start_rate_limit+cooldown<=20%, exp>=3160 or gold>=435 with smoke code=200"}},{"id":"db2b7f51-c6a0-4426-ad8e-b916059ba0dd","character_name":"j211y","tick_number":1773620364339,"timestamp":"2026-03-16 09:19:24","decision_type":"status_check","context":{"hp_pct":1,"mp_pct":1,"level":24,"area":"talking_island_field","gold":389,"inventory_count":4,"inventory_max":30,"available_actions":["combat_start","rest","use_item","sell","buy","move","hunt","enhance","surrender"]},"reasoning":"KEEP by delta evidence: remote thinking last20 was empty, fallback local last20 (thinking-post-2248..0848) shows level +1, gold +35, inventory -1, rate/cooldown mentions 14/20. Improvement is measurable, so no config/logic retune this cycle. Safety stays strict: safest high-efficiency target remains skeleton in talking_island_field, movement threshold gate BUJU_MOVE_LEVEL_2=30 is preserved, and no new death-log burst is visible.","action_detail":"keep:inv10/8/10+worse-first;BiS score(maxDamage+defBonus) equip;enhance prereq-gated skip (npc=0,scroll=0);daemon on;smoke code=200","result":{"success":true,"message":"Next 30m KPI: deaths=0, inventory<=8, dangerous-surrender<=1/8 cycles, wait_combat_start_rate_limit+cooldown<=20%, progression exp>=2950 or gold>=410, smoke code=200."}},{"id":"fc9e0b97-4794-4521-a445-96efc64c8c3b","character_name":"j211y","tick_number":1773618530000,"timestamp":"2026-03-16 08:49:25","decision_type":"status_check","context":{"hp_pct":0.553,"mp_pct":1,"level":24,"area":"talking_island_field","gold":389,"inventory_count":5,"inventory_max":30,"available_actions":["combat_start","rest","use_item","sell","buy","move","hunt","enhance","surrender"]},"reasoning":"KEEP by last-20 delta evidence (2026-03-15 21:50:00->2026-03-16 08:20:28, n=20): level +1, gold +45, inventory -5, rate/cooldown mentions 14/20. Improvement is measurable, so no parameter change this cycle. Safety remains strict: safest high-efficiency target stays skeleton in talking_island_field, movement remains threshold-gated at BUJU_MOVE_LEVEL_2=30, and no fresh death burst is observed (latest death 2026-03-15 05:09:30).","action_detail":"keep:inv10/8/10+worse-first;BiS score(maxDamage+defBonus) equip;enhance prereq-gated skip (npc=0,scroll=0);daemon on;smoke code=200","result":{"success":true,"message":"Next 30m KPI: deaths=0, inventory<=8, dangerous-surrender<=1/8 cycles, wait_combat_start_rate_limit+cooldown<=20%, progression exp>=2745 or gold>=410, smoke code=200."}},{"id":"9b811297-e9dd-4117-a27b-292c2a887bc9","character_name":"j211y","tick_number":1773616828119,"timestamp":"2026-03-16 08:20:28","decision_type":"status_check","context":{"hp_pct":0.566,"mp_pct":1,"level":24,"area":"talking_island_field","gold":394,"inventory_count":3,"inventory_max":30,"available_actions":["combat_start","rest","use_item","sell","buy","move","hunt","enhance","surrender"]},"reasoning":"KEEP by last-20 delta evidence (2026-03-15 20:50:04->2026-03-16 07:50:07, n=20): level +1, gold +25, inventory -1, rate/cooldown mentions 12/20. Safety remains strict with skeleton as safest high-efficiency target in talking_island_field, threshold movement gate at BUJU_MOVE_LEVEL_2=30, and no fresh death burst (latest death 2026-03-15 05:09:30).","action_detail":"keep:inv10/8/10+worse-first;BiS score(maxDamage+defBonus);enhance prereq-gated skip;npc=0,scroll=0;daemon on;smoke code=200","result":{"success":true,"message":"Next 30m KPI: deaths=0, inventory<=8, dangerous-surrender<=1/8 cycles, wait_combat_start_rate_limit+cooldown<=20%, progression exp>=2525 or gold>=410, smoke code=200."}},{"id":"5cd3a8df-7538-4cb6-bc91-9a8780b42443","character_name":"j211y","tick_number":1773615007418,"timestamp":"2026-03-16 07:50:07","decision_type":"status_check","context":{"hp_pct":0.5056179775280899,"mp_pct":1,"level":24,"area":"talking_island_field","gold":389,"inventory_count":3,"inventory_max":30,"available_actions":[]},"reasoning":"KEEP by last-20 delta evidence (20:19:56->07:20:14, n=20): level +1, gold +65, inventory -5, rate/cooldown mentions 12/20. Safety remains strict with skeleton as safest high-efficiency target in talking_island_field, threshold movement gate at BUJU_MOVE_LEVEL_2=30, and no fresh death burst (latest death 2026-03-15 05:09:30).","action_detail":"keep:inv10/8/10+worse-first;BiS score(maxDamage+defBonus);enhance prereq-gated skip;npc=0,scroll=0;daemon on;smoke code=200","result":{"success":true,"message":"Next 30m KPI: deaths=0, inventory<=8, dangerous-surrender<=1/8 cycles, wait_combat_start_rate_limit+cooldown<=20%, progression exp>=2325 or gold>=405, smoke code=200."}},{"id":"cb191158-ccbe-4374-b2e6-3b1ecf923983","character_name":"j211y","tick_number":1773613214168,"timestamp":"2026-03-16 07:20:14","decision_type":"status_check","context":{"hp_pct":0.5550561797752809,"mp_pct":1,"level":24,"area":"talking_island_field","gold":424,"inventory_count":3,"inventory_max":30,"available_actions":["combat_start","rest","use_item","sell","buy","move","hunt","enhance"]},"reasoning":"Last-20 deltas are mixed (level +1, exp +0, gold +5) with high throttle wording (20/20). I changed BUJU_MAX_ACTIONS_PER_CYCLE 2->3 to reduce wait-heavy stagnation while keeping strict safety gates and inventory constraints.","action_detail":"changed:BUJU_MAX_ACTIONS_PER_CYCLE=3; kept:threshold movement + safest-hunt + inv sell invariants + BiS/equipment progression","result":{"success":true,"message":"KPI next 30m: deaths=0, inventory<=8, dangerous_surrender<=1/8, wait_combat_start_rate_limit+cooldown<=20%, progression exp>=2120 or gold>=430, smoke code=200."}},{"id":"76ca7105-ed9d-439b-99e1-d027b139d036","character_name":"j211y","tick_number":1773609544244,"timestamp":"2026-03-16 06:19:04","decision_type":"status_check","context":{"hp_pct":0.611,"mp_pct":1,"level":24,"area":"talking_island_field","gold":369,"inventory_count":7,"inventory_max":30,"available_actions":["combat_start","rest","use_item","sell","buy","move","enhance"]},"reasoning":"KEEP by evidence: fallback local last20 delta (count=20, ticks 1773569961313->1773607799940) improved level +1, gold +185, inventory -1, with rate/cooldown mentions 12/20. Live status is stable (lv 24, exp 1585, gold 369, area talking_island_field), safest high-efficiency target remains skeleton over rabbit in talking_island_field, and movement stays threshold-gated at BUJU_MOVE_LEVEL_2=30.","action_detail":"kept inv hard constraints 10/8/10 with worse-than-equipped-first liquidation, kept BiS equip(score=maxDamage+defBonus), kept staged enhancement policy + prereq-gated safe path, daemon continuous","result":{"success":true,"message":"Next 30m KPI: deaths=0, inventory<=8, dangerous-surrender<=1/8 cycles, wait_combat_start_rate_limit+cooldown<=22%, and progression exp>=1660 or gold>=390 with smoke code=200."}}],"pagination":{"page":1,"limit":20,"total":135,"total_pages":7,"has_next":true,"has_prev":false}}