{
  "status": 200,
  "json": {
    "logs": [
      {
        "id": "626c513e-a0ca-4cfb-8e73-13dc61f83327",
        "action": "death",
        "result": "이동 중 돌연변이 몬스터와 마주쳤다! 방어 부적이 없어 쓰러졌다...",
        "detail": "이동 중 돌연변이 몬스터와 마주쳤다! 방어 부적이 없어 쓰러졌다...",
        "timestamp": "2026-03-15 05:09:30"
      },
      {
        "id": "5076d29b-b90f-4f24-b7d3-1496ff52bd58",
        "action": "death",
        "result": "이동 중 돌연변이 몬스터와 마주쳤다! 방어 부적이 없어 쓰러졌다...",
        "detail": "이동 중 돌연변이 몬스터와 마주쳤다! 방어 부적이 없어 쓰러졌다...",
        "timestamp": "2026-03-15 04:59:21"
      },
      {
        "id": "48698079-b952-4785-8702-abedd393cc47",
        "action": "death",
        "result": "이동 중 돌연변이 몬스터와 마주쳤다! 방어 부적이 없어 쓰러졌다...",
        "detail": "이동 중 돌연변이 몬스터와 마주쳤다! 방어 부적이 없어 쓰러졌다...",
        "timestamp": "2026-03-15 04:48:01"
      },
      {
        "id": "60fa676d-2ef8-4c8b-b928-cf81ca552e4c",
        "action": "death",
        "result": "스켈레톤 나이트에게 패배 (46턴) | DMG: 118 | 피격: 293",
        "detail": "스켈레톤 나이트에게 패배 (46턴) | DMG: 118 | 피격: 293",
        "timestamp": "2026-03-15 04:47:36"
      },
      {
        "id": "6a1d2320-e8a8-4c4b-949a-bef57972bf28",
        "action": "death",
        "result": "스켈레톤 나이트에게 패배 (45턴) | DMG: 136 | 피격: 293",
        "detail": "스켈레톤 나이트에게 패배 (45턴) | DMG: 136 | 피격: 293",
        "timestamp": "2026-03-15 04:47:09"
      },
      {
        "id": "f40c61d2-d4aa-4b7a-986e-9803b431a24a",
        "action": "death",
        "result": "스켈레톤 나이트에게 패배 (45턴) | DMG: 115 | 피격: 295",
        "detail": "스켈레톤 나이트에게 패배 (45턴) | DMG: 115 | 피격: 295",
        "timestamp": "2026-03-15 04:46:42"
      },
      {
        "id": "e9f7c528-1d2c-47e7-a5ab-6dba4a67e297",
        "action": "death",
        "result": "스켈레톤 나이트에게 패배 (43턴) | DMG: 108 | 피격: 292",
        "detail": "스켈레톤 나이트에게 패배 (43턴) | DMG: 108 | 피격: 292",
        "timestamp": "2026-03-15 04:46:14"
      },
      {
        "id": "521e608a-35f5-4a34-a25f-381903193f63",
        "action": "death",
        "result": "스켈레톤 나이트에게 패배 (46턴) | DMG: 111 | 피격: 295",
        "detail": "스켈레톤 나이트에게 패배 (46턴) | DMG: 111 | 피격: 295",
        "timestamp": "2026-03-15 04:45:47"
      },
      {
        "id": "ea804a2d-1d25-4fda-a563-a41f03eb09d2",
        "action": "death",
        "result": "스켈레톤 나이트에게 패배 (46턴) | DMG: 137 | 피격: 292",
        "detail": "스켈레톤 나이트에게 패배 (46턴) | DMG: 137 | 피격: 292",
        "timestamp": "2026-03-15 04:45:19"
      },
      {
        "id": "f28640c8-73ad-4703-b16a-4df1be5277be",
        "action": "death",
        "result": "스켈레톤 나이트에게 패배 (45턴) | DMG: 122 | 피격: 291",
        "detail": "스켈레톤 나이트에게 패배 (45턴) | DMG: 122 | 피격: 291",
        "timestamp": "2026-03-15 04:44:52"
      },
      {
        "id": "7a5d4f58-6857-41e8-9a31-862482eda2e8",
        "action": "death",
        "result": "스켈레톤 나이트에게 패배 (44턴) | DMG: 116 | 피격: 294",
        "detail": "스켈레톤 나이트에게 패배 (44턴) | DMG: 116 | 피격: 294",
        "timestamp": "2026-03-15 04:44:25"
      },
      {
        "id": "833a97e9-6460-493e-8145-58de0fb6a4ed",
        "action": "death",
        "result": "스켈레톤 나이트에게 패배 (43턴) | DMG: 109 | 피격: 291",
        "detail": "스켈레톤 나이트에게 패배 (43턴) | DMG: 109 | 피격: 291",
        "timestamp": "2026-03-15 04:43:57"
      },
      {
        "id": "7b183983-b9d8-48fc-9963-7cfa1897b559",
        "action": "death",
        "result": "스켈레톤 나이트에게 패배 (45턴) | DMG: 122 | 피격: 293",
        "detail": "스켈레톤 나이트에게 패배 (45턴) | DMG: 122 | 피격: 293",
        "timestamp": "2026-03-15 04:43:30"
      },
      {
        "id": "fa3d266d-5a0b-482c-bd8b-fdbe3c9e796d",
        "action": "death",
        "result": "스켈레톤 나이트에게 패배 (64턴) | DMG: 175 | 피격: 416",
        "detail": "스켈레톤 나이트에게 패배 (64턴) | DMG: 175 | 피격: 416",
        "timestamp": "2026-03-15 04:42:54"
      },
      {
        "id": "0b2b6668-9731-4f4e-a17a-b900dc3bb168",
        "action": "death",
        "result": "스켈레톤 나이트에게 패배 (40턴) | DMG: 113 | 피격: 280",
        "detail": "스켈레톤 나이트에게 패배 (40턴) | DMG: 113 | 피격: 280",
        "timestamp": "2026-03-14 19:48:22"
      },
      {
        "id": "2787fa04-686f-4a95-8b32-09eb4132d6df",
        "action": "death",
        "result": "스켈레톤 나이트에게 패배 (40턴) | DMG: 104 | 피격: 282",
        "detail": "스켈레톤 나이트에게 패배 (40턴) | DMG: 104 | 피격: 282",
        "timestamp": "2026-03-14 19:48:00"
      },
      {
        "id": "04a1a797-9ba6-47d9-b0d8-adaca89f07e5",
        "action": "death",
        "result": "스켈레톤 나이트에게 패배 (41턴) | DMG: 122 | 피격: 280",
        "detail": "스켈레톤 나이트에게 패배 (41턴) | DMG: 122 | 피격: 280",
        "timestamp": "2026-03-14 19:47:32"
      },
      {
        "id": "fc758909-f532-41c6-9191-b517246ef115",
        "action": "death",
        "result": "스켈레톤 나이트에게 패배 (42턴) | DMG: 110 | 피격: 282",
        "detail": "스켈레톤 나이트에게 패배 (42턴) | DMG: 110 | 피격: 282",
        "timestamp": "2026-03-14 19:47:05"
      },
      {
        "id": "45adfd46-5922-4949-b9b2-a2b730925587",
        "action": "death",
        "result": "스켈레톤 나이트에게 패배 (44턴) | DMG: 128 | 피격: 281",
        "detail": "스켈레톤 나이트에게 패배 (44턴) | DMG: 128 | 피격: 281",
        "timestamp": "2026-03-14 19:46:38"
      },
      {
        "id": "7b06bc5e-8452-4db8-807c-7ba371ca8f2a",
        "action": "death",
        "result": "스켈레톤 나이트에게 패배 (41턴) | DMG: 114 | 피격: 282",
        "detail": "스켈레톤 나이트에게 패배 (41턴) | DMG: 114 | 피격: 282",
        "timestamp": "2026-03-14 19:46:10"
      },
      {
        "id": "03232bb1-41fd-4f67-b1c0-d9b69d687975",
        "action": "death",
        "result": "스켈레톤 나이트에게 패배 (43턴) | DMG: 120 | 피격: 283",
        "detail": "스켈레톤 나이트에게 패배 (43턴) | DMG: 120 | 피격: 283",
        "timestamp": "2026-03-14 19:45:43"
      },
      {
        "id": "4ca5902e-5c55-4e33-b6b1-8d8710ab7ac7",
        "action": "death",
        "result": "스켈레톤 나이트에게 패배 (43턴) | DMG: 140 | 피격: 282",
        "detail": "스켈레톤 나이트에게 패배 (43턴) | DMG: 140 | 피격: 282",
        "timestamp": "2026-03-14 19:45:15"
      },
      {
        "id": "69990bcf-a9b6-4cc4-b3be-42718f52eaeb",
        "action": "death",
        "result": "스켈레톤 나이트에게 패배 (43턴) | DMG: 129 | 피격: 286",
        "detail": "스켈레톤 나이트에게 패배 (43턴) | DMG: 129 | 피격: 286",
        "timestamp": "2026-03-14 19:44:48"
      },
      {
        "id": "eb396dc5-9064-4389-84d8-039b6cd7d42b",
        "action": "death",
        "result": "스켈레톤 나이트에게 패배 (43턴) | DMG: 115 | 피격: 284",
        "detail": "스켈레톤 나이트에게 패배 (43턴) | DMG: 115 | 피격: 284",
        "timestamp": "2026-03-14 19:44:20"
      },
      {
        "id": "ab0263bb-3a4b-4f02-b6b8-4a09c399bdf5",
        "action": "death",
        "result": "스켈레톤 나이트에게 패배 (43턴) | DMG: 123 | 피격: 284",
        "detail": "스켈레톤 나이트에게 패배 (43턴) | DMG: 123 | 피격: 284",
        "timestamp": "2026-03-14 19:43:52"
      },
      {
        "id": "374566fa-2c34-4be9-ac12-a6b2038e2b86",
        "action": "death",
        "result": "스켈레톤 나이트에게 패배 (40턴) | DMG: 100 | 피격: 280",
        "detail": "스켈레톤 나이트에게 패배 (40턴) | DMG: 100 | 피격: 280",
        "timestamp": "2026-03-14 19:43:25"
      },
      {
        "id": "60b55a64-6651-47f7-a850-124e2c719025",
        "action": "death",
        "result": "스켈레톤 나이트에게 패배 (41턴) | DMG: 105 | 피격: 280",
        "detail": "스켈레톤 나이트에게 패배 (41턴) | DMG: 105 | 피격: 280",
        "timestamp": "2026-03-14 19:42:57"
      },
      {
        "id": "c7faf38c-7d83-47cc-8a63-a982a5df8750",
        "action": "death",
        "result": "스켈레톤 나이트에게 패배 (42턴) | DMG: 125 | 피격: 282",
        "detail": "스켈레톤 나이트에게 패배 (42턴) | DMG: 125 | 피격: 282",
        "timestamp": "2026-03-14 19:42:30"
      },
      {
        "id": "d959ad1a-c4e0-4985-a0c4-abc1ee59f23f",
        "action": "death",
        "result": "스켈레톤 나이트에게 패배 (42턴) | DMG: 115 | 피격: 285",
        "detail": "스켈레톤 나이트에게 패배 (42턴) | DMG: 115 | 피격: 285",
        "timestamp": "2026-03-14 19:42:02"
      },
      {
        "id": "2cc55782-87a3-4f7b-8b8c-b04742d26078",
        "action": "death",
        "result": "스켈레톤 나이트에게 패배 (43턴) | DMG: 121 | 피격: 281",
        "detail": "스켈레톤 나이트에게 패배 (43턴) | DMG: 121 | 피격: 281",
        "timestamp": "2026-03-14 19:41:35"
      },
      {
        "id": "1bf7a302-a69b-4695-9c35-63f7da2e2620",
        "action": "death",
        "result": "스켈레톤 나이트에게 패배 (43턴) | DMG: 107 | 피격: 284",
        "detail": "스켈레톤 나이트에게 패배 (43턴) | DMG: 107 | 피격: 284",
        "timestamp": "2026-03-14 19:41:08"
      },
      {
        "id": "0fe254a4-435f-42cd-8304-6a126257cc0d",
        "action": "death",
        "result": "스켈레톤 나이트에게 패배 (43턴) | DMG: 111 | 피격: 282",
        "detail": "스켈레톤 나이트에게 패배 (43턴) | DMG: 111 | 피격: 282",
        "timestamp": "2026-03-14 19:40:40"
      },
      {
        "id": "22b4c714-9709-45ad-8f7d-306c6fc06caf",
        "action": "death",
        "result": "스켈레톤 나이트에게 패배 (43턴) | DMG: 123 | 피격: 284",
        "detail": "스켈레톤 나이트에게 패배 (43턴) | DMG: 123 | 피격: 284",
        "timestamp": "2026-03-14 19:40:13"
      },
      {
        "id": "bd9ff3c7-dc6e-4ec9-9ec6-50dfe825b5b7",
        "action": "death",
        "result": "스켈레톤 나이트에게 패배 (42턴) | DMG: 126 | 피격: 280",
        "detail": "스켈레톤 나이트에게 패배 (42턴) | DMG: 126 | 피격: 280",
        "timestamp": "2026-03-14 19:39:45"
      },
      {
        "id": "d52d4fb6-945a-4a24-8cc7-c65ea5317bd1",
        "action": "death",
        "result": "스켈레톤 나이트에게 패배 (42턴) | DMG: 110 | 피격: 283",
        "detail": "스켈레톤 나이트에게 패배 (42턴) | DMG: 110 | 피격: 283",
        "timestamp": "2026-03-14 19:39:18"
      },
      {
        "id": "3000ee03-031f-4b54-96b9-eefd7ba17abb",
        "action": "death",
        "result": "스켈레톤 나이트에게 패배 (42턴) | DMG: 117 | 피격: 285",
        "detail": "스켈레톤 나이트에게 패배 (42턴) | DMG: 117 | 피격: 285",
        "timestamp": "2026-03-14 19:38:50"
      },
      {
        "id": "771393ab-d4a0-4a8e-83bb-497bbfafafe3",
        "action": "death",
        "result": "스켈레톤 나이트에게 패배 (42턴) | DMG: 96 | 피격: 284",
        "detail": "스켈레톤 나이트에게 패배 (42턴) | DMG: 96 | 피격: 284",
        "timestamp": "2026-03-14 19:38:23"
      },
      {
        "id": "84dae9d3-0400-44d2-a45e-b24f28a62180",
        "action": "death",
        "result": "스켈레톤 나이트에게 패배 (41턴) | DMG: 106 | 피격: 284",
        "detail": "스켈레톤 나이트에게 패배 (41턴) | DMG: 106 | 피격: 284",
        "timestamp": "2026-03-14 19:37:55"
      },
      {
        "id": "8065d3aa-829f-4714-af1d-1d4b02ca4619",
        "action": "death",
        "result": "스켈레톤 나이트에게 패배 (43턴) | DMG: 116 | 피격: 285",
        "detail": "스켈레톤 나이트에게 패배 (43턴) | DMG: 116 | 피격: 285",
        "timestamp": "2026-03-14 19:37:28"
      },
      {
        "id": "06e075a2-6565-4431-a87d-51c761e0c49c",
        "action": "death",
        "result": "스켈레톤 나이트에게 패배 (41턴) | DMG: 98 | 피격: 285",
        "detail": "스켈레톤 나이트에게 패배 (41턴) | DMG: 98 | 피격: 285",
        "timestamp": "2026-03-14 19:37:00"
      },
      {
        "id": "f4d36226-5537-46bd-86a4-cdced635ceef",
        "action": "death",
        "result": "스켈레톤 나이트에게 패배 (42턴) | DMG: 112 | 피격: 287",
        "detail": "스켈레톤 나이트에게 패배 (42턴) | DMG: 112 | 피격: 287",
        "timestamp": "2026-03-14 19:36:33"
      },
      {
        "id": "1b30f737-a214-4d38-938e-1f3f0d01ed54",
        "action": "death",
        "result": "스켈레톤 나이트에게 패배 (41턴) | DMG: 116 | 피격: 284",
        "detail": "스켈레톤 나이트에게 패배 (41턴) | DMG: 116 | 피격: 284",
        "timestamp": "2026-03-14 19:36:05"
      },
      {
        "id": "2ba8bd28-ff70-4621-843f-237c0bc52abe",
        "action": "death",
        "result": "스켈레톤 나이트에게 패배 (43턴) | DMG: 106 | 피격: 284",
        "detail": "스켈레톤 나이트에게 패배 (43턴) | DMG: 106 | 피격: 284",
        "timestamp": "2026-03-14 19:35:38"
      },
      {
        "id": "9eff2c15-bab2-414b-bb0e-125a1225d941",
        "action": "death",
        "result": "스켈레톤 나이트에게 패배 (43턴) | DMG: 125 | 피격: 283",
        "detail": "스켈레톤 나이트에게 패배 (43턴) | DMG: 125 | 피격: 283",
        "timestamp": "2026-03-14 19:35:10"
      },
      {
        "id": "a86272da-f598-45e3-8e53-f43bbcba6cc4",
        "action": "death",
        "result": "스켈레톤 나이트에게 패배 (42턴) | DMG: 107 | 피격: 284",
        "detail": "스켈레톤 나이트에게 패배 (42턴) | DMG: 107 | 피격: 284",
        "timestamp": "2026-03-14 19:34:43"
      },
      {
        "id": "493483ce-8997-47b4-bebd-0da071e76457",
        "action": "death",
        "result": "스켈레톤 나이트에게 패배 (42턴) | DMG: 143 | 피격: 280",
        "detail": "스켈레톤 나이트에게 패배 (42턴) | DMG: 143 | 피격: 280",
        "timestamp": "2026-03-14 19:34:15"
      },
      {
        "id": "8f4375cc-a262-4dfa-b350-49f1e0da6ab5",
        "action": "death",
        "result": "스켈레톤 나이트에게 패배 (43턴) | DMG: 107 | 피격: 285",
        "detail": "스켈레톤 나이트에게 패배 (43턴) | DMG: 107 | 피격: 285",
        "timestamp": "2026-03-14 19:33:48"
      },
      {
        "id": "b3a7792f-d59e-42fa-a55c-dfa15c5c9165",
        "action": "death",
        "result": "스켈레톤 나이트에게 패배 (42턴) | DMG: 121 | 피격: 285",
        "detail": "스켈레톤 나이트에게 패배 (42턴) | DMG: 121 | 피격: 285",
        "timestamp": "2026-03-14 19:33:20"
      },
      {
        "id": "29d83bd3-f87a-4e28-b5f0-a3b80f449907",
        "action": "death",
        "result": "스켈레톤 나이트에게 패배 (43턴) | DMG: 116 | 피격: 281",
        "detail": "스켈레톤 나이트에게 패배 (43턴) | DMG: 116 | 피격: 281",
        "timestamp": "2026-03-14 19:32:53"
      },
      {
        "id": "fa08a2bb-7870-4acf-bc8d-d8ad69f50889",
        "action": "death",
        "result": "스켈레톤 나이트에게 패배 (41턴) | DMG: 102 | 피격: 280",
        "detail": "스켈레톤 나이트에게 패배 (41턴) | DMG: 102 | 피격: 280",
        "timestamp": "2026-03-14 19:32:25"
      },
      {
        "id": "c764559e-e4ab-4a8f-94c4-1f20f1272641",
        "action": "death",
        "result": "스켈레톤 나이트에게 패배 (44턴) | DMG: 107 | 피격: 281",
        "detail": "스켈레톤 나이트에게 패배 (44턴) | DMG: 107 | 피격: 281",
        "timestamp": "2026-03-14 19:31:58"
      },
      {
        "id": "9fb1e7c6-181a-4608-8a33-e2f2123f4604",
        "action": "death",
        "result": "스켈레톤 나이트에게 패배 (41턴) | DMG: 118 | 피격: 280",
        "detail": "스켈레톤 나이트에게 패배 (41턴) | DMG: 118 | 피격: 280",
        "timestamp": "2026-03-14 19:31:30"
      },
      {
        "id": "2c1169fa-a618-4d6d-bca6-5b8e676c7d71",
        "action": "death",
        "result": "스켈레톤 나이트에게 패배 (43턴) | DMG: 124 | 피격: 285",
        "detail": "스켈레톤 나이트에게 패배 (43턴) | DMG: 124 | 피격: 285",
        "timestamp": "2026-03-14 19:31:03"
      },
      {
        "id": "cf5fafde-9ff1-4879-8c6b-12f9936ad4bd",
        "action": "death",
        "result": "스켈레톤 나이트에게 패배 (44턴) | DMG: 110 | 피격: 281",
        "detail": "스켈레톤 나이트에게 패배 (44턴) | DMG: 110 | 피격: 281",
        "timestamp": "2026-03-14 19:30:35"
      },
      {
        "id": "acdacbb4-5415-40f9-8671-f3f9cc4b6e4c",
        "action": "death",
        "result": "스켈레톤 나이트에게 패배 (44턴) | DMG: 119 | 피격: 281",
        "detail": "스켈레톤 나이트에게 패배 (44턴) | DMG: 119 | 피격: 281",
        "timestamp": "2026-03-14 19:30:08"
      },
      {
        "id": "ad2bb2ae-6227-4e1f-a0c6-e58223f4f403",
        "action": "death",
        "result": "스켈레톤 나이트에게 패배 (41턴) | DMG: 91 | 피격: 281",
        "detail": "스켈레톤 나이트에게 패배 (41턴) | DMG: 91 | 피격: 281",
        "timestamp": "2026-03-14 19:29:40"
      },
      {
        "id": "92643318-f211-4256-82f9-18679633ff15",
        "action": "death",
        "result": "스켈레톤 나이트에게 패배 (43턴) | DMG: 114 | 피격: 282",
        "detail": "스켈레톤 나이트에게 패배 (43턴) | DMG: 114 | 피격: 282",
        "timestamp": "2026-03-14 19:29:13"
      },
      {
        "id": "27cc8dfe-a1bf-4770-85e2-b7c66166b317",
        "action": "death",
        "result": "스켈레톤 나이트에게 패배 (44턴) | DMG: 127 | 피격: 284",
        "detail": "스켈레톤 나이트에게 패배 (44턴) | DMG: 127 | 피격: 284",
        "timestamp": "2026-03-14 19:28:46"
      },
      {
        "id": "e4273ce5-8509-4130-9e31-fd2cdc7f4707",
        "action": "death",
        "result": "스켈레톤 나이트에게 패배 (42턴) | DMG: 122 | 피격: 283",
        "detail": "스켈레톤 나이트에게 패배 (42턴) | DMG: 122 | 피격: 283",
        "timestamp": "2026-03-14 19:28:18"
      },
      {
        "id": "f53f0a8a-ccd0-43fe-b9d3-6e3b0890d8f2",
        "action": "death",
        "result": "스켈레톤 나이트에게 패배 (43턴) | DMG: 124 | 피격: 285",
        "detail": "스켈레톤 나이트에게 패배 (43턴) | DMG: 124 | 피격: 285",
        "timestamp": "2026-03-14 19:27:51"
      },
      {
        "id": "64cf1985-6627-480d-9e66-bc4804a0fef2",
        "action": "death",
        "result": "스켈레톤 나이트에게 패배 (42턴) | DMG: 115 | 피격: 283",
        "detail": "스켈레톤 나이트에게 패배 (42턴) | DMG: 115 | 피격: 283",
        "timestamp": "2026-03-14 19:27:23"
      },
      {
        "id": "76362087-52af-4211-9ae5-c441bc05f8c5",
        "action": "death",
        "result": "스켈레톤 나이트에게 패배 (42턴) | DMG: 124 | 피격: 284",
        "detail": "스켈레톤 나이트에게 패배 (42턴) | DMG: 124 | 피격: 284",
        "timestamp": "2026-03-14 19:26:56"
      },
      {
        "id": "9b693bc2-f0be-4f8e-ab62-cc35dc7564c7",
        "action": "death",
        "result": "스켈레톤 나이트에게 패배 (41턴) | DMG: 102 | 피격: 282",
        "detail": "스켈레톤 나이트에게 패배 (41턴) | DMG: 102 | 피격: 282",
        "timestamp": "2026-03-14 19:26:28"
      },
      {
        "id": "9b694df1-9fff-4647-b3af-e98c15b01a05",
        "action": "death",
        "result": "스켈레톤 나이트에게 패배 (41턴) | DMG: 109 | 피격: 280",
        "detail": "스켈레톤 나이트에게 패배 (41턴) | DMG: 109 | 피격: 280",
        "timestamp": "2026-03-14 19:26:01"
      },
      {
        "id": "de47b4d8-a1cc-44b7-bcaf-ebc26ef4a3a1",
        "action": "death",
        "result": "스켈레톤 나이트에게 패배 (60턴) | DMG: 177 | 피격: 400",
        "detail": "스켈레톤 나이트에게 패배 (60턴) | DMG: 177 | 피격: 400",
        "timestamp": "2026-03-14 19:25:25"
      },
      {
        "id": "0dc3c967-04a6-464a-8e68-9d0fb1674b63",
        "action": "death",
        "result": "이동 중 돌연변이 몬스터와 마주쳤다! 방어 부적이 없어 쓰러졌다...",
        "detail": "이동 중 돌연변이 몬스터와 마주쳤다! 방어 부적이 없어 쓰러졌다...",
        "timestamp": "2026-03-14 11:18:52"
      },
      {
        "id": "c03efaa9-c92a-4c13-9446-35b83d2f84e1",
        "action": "death",
        "result": "스켈레톤 나이트에게 패배 (40턴) | DMG: 113 | 피격: 269",
        "detail": "스켈레톤 나이트에게 패배 (40턴) | DMG: 113 | 피격: 269",
        "timestamp": "2026-03-14 11:18:25"
      },
      {
        "id": "d2390a9a-9375-4fa9-bbb1-0feea275ce9b",
        "action": "death",
        "result": "스켈레톤 나이트에게 패배 (41턴) | DMG: 119 | 피격: 272",
        "detail": "스켈레톤 나이트에게 패배 (41턴) | DMG: 119 | 피격: 272",
        "timestamp": "2026-03-14 11:17:59"
      },
      {
        "id": "c92a7d85-f91a-471a-a98b-c91546059d3d",
        "action": "death",
        "result": "스켈레톤 나이트에게 패배 (38턴) | DMG: 108 | 피격: 269",
        "detail": "스켈레톤 나이트에게 패배 (38턴) | DMG: 108 | 피격: 269",
        "timestamp": "2026-03-14 11:17:32"
      },
      {
        "id": "0cdfcc77-d5cf-4db7-b9aa-043f5f2c1580",
        "action": "death",
        "result": "스켈레톤 나이트에게 패배 (41턴) | DMG: 104 | 피격: 269",
        "detail": "스켈레톤 나이트에게 패배 (41턴) | DMG: 104 | 피격: 269",
        "timestamp": "2026-03-14 11:17:05"
      },
      {
        "id": "880ee36d-5495-4c5b-853b-732c13448148",
        "action": "death",
        "result": "스켈레톤 나이트에게 패배 (39턴) | DMG: 106 | 피격: 274",
        "detail": "스켈레톤 나이트에게 패배 (39턴) | DMG: 106 | 피격: 274",
        "timestamp": "2026-03-14 11:16:39"
      },
      {
        "id": "bc3270c0-9b90-484d-b192-b077fd9723c5",
        "action": "death",
        "result": "스켈레톤 나이트에게 패배 (39턴) | DMG: 107 | 피격: 275",
        "detail": "스켈레톤 나이트에게 패배 (39턴) | DMG: 107 | 피격: 275",
        "timestamp": "2026-03-14 11:16:12"
      },
      {
        "id": "3a1c8788-3edd-48e7-b09e-2f6b6075a474",
        "action": "death",
        "result": "스켈레톤 나이트에게 패배 (39턴) | DMG: 115 | 피격: 273",
        "detail": "스켈레톤 나이트에게 패배 (39턴) | DMG: 115 | 피격: 273",
        "timestamp": "2026-03-14 11:15:46"
      },
      {
        "id": "80b5dab4-93db-4f0f-ac45-ff41340f8d55",
        "action": "death",
        "result": "스켈레톤 나이트에게 패배 (39턴) | DMG: 110 | 피격: 274",
        "detail": "스켈레톤 나이트에게 패배 (39턴) | DMG: 110 | 피격: 274",
        "timestamp": "2026-03-14 11:15:19"
      },
      {
        "id": "de1303c6-5b29-4555-8b86-7d406628bbd6",
        "action": "death",
        "result": "스켈레톤 나이트에게 패배 (37턴) | DMG: 103 | 피격: 272",
        "detail": "스켈레톤 나이트에게 패배 (37턴) | DMG: 103 | 피격: 272",
        "timestamp": "2026-03-14 11:14:52"
      },
      {
        "id": "903a49e8-d737-4aad-9512-d685e899af5c",
        "action": "death",
        "result": "스켈레톤 나이트에게 패배 (40턴) | DMG: 95 | 피격: 272",
        "detail": "스켈레톤 나이트에게 패배 (40턴) | DMG: 95 | 피격: 272",
        "timestamp": "2026-03-14 11:14:25"
      },
      {
        "id": "e0e26796-aab4-40f0-ba58-20cf1d51a491",
        "action": "death",
        "result": "스켈레톤 나이트에게 패배 (40턴) | DMG: 99 | 피격: 273",
        "detail": "스켈레톤 나이트에게 패배 (40턴) | DMG: 99 | 피격: 273",
        "timestamp": "2026-03-14 11:13:59"
      },
      {
        "id": "5dec92e5-eba3-47d1-bb26-8071d89e32d8",
        "action": "death",
        "result": "스켈레톤 나이트에게 패배 (39턴) | DMG: 107 | 피격: 269",
        "detail": "스켈레톤 나이트에게 패배 (39턴) | DMG: 107 | 피격: 269",
        "timestamp": "2026-03-14 11:13:32"
      },
      {
        "id": "1bed30b7-2232-4f93-9ccc-825d545a4221",
        "action": "death",
        "result": "스켈레톤 나이트에게 패배 (38턴) | DMG: 111 | 피격: 270",
        "detail": "스켈레톤 나이트에게 패배 (38턴) | DMG: 111 | 피격: 270",
        "timestamp": "2026-03-14 11:13:05"
      },
      {
        "id": "a03493c6-730d-4da0-a0d1-eb3b749a357e",
        "action": "death",
        "result": "스켈레톤 나이트에게 패배 (40턴) | DMG: 108 | 피격: 269",
        "detail": "스켈레톤 나이트에게 패배 (40턴) | DMG: 108 | 피격: 269",
        "timestamp": "2026-03-14 11:12:39"
      },
      {
        "id": "249e6d84-42f4-4cad-86b2-04503a2ec093",
        "action": "death",
        "result": "스켈레톤 나이트에게 패배 (41턴) | DMG: 116 | 피격: 271",
        "detail": "스켈레톤 나이트에게 패배 (41턴) | DMG: 116 | 피격: 271",
        "timestamp": "2026-03-14 11:12:12"
      },
      {
        "id": "00b917d8-142b-47a7-b8ee-c414b627c27d",
        "action": "death",
        "result": "스켈레톤 나이트에게 패배 (41턴) | DMG: 128 | 피격: 271",
        "detail": "스켈레톤 나이트에게 패배 (41턴) | DMG: 128 | 피격: 271",
        "timestamp": "2026-03-14 11:11:45"
      },
      {
        "id": "f2fd88c8-22a6-4e12-a257-36a85516b89d",
        "action": "death",
        "result": "스켈레톤 나이트에게 패배 (40턴) | DMG: 110 | 피격: 270",
        "detail": "스켈레톤 나이트에게 패배 (40턴) | DMG: 110 | 피격: 270",
        "timestamp": "2026-03-14 11:11:19"
      },
      {
        "id": "83a572d8-573a-469c-b537-e96c95f4803d",
        "action": "death",
        "result": "스켈레톤 나이트에게 패배 (39턴) | DMG: 117 | 피격: 273",
        "detail": "스켈레톤 나이트에게 패배 (39턴) | DMG: 117 | 피격: 273",
        "timestamp": "2026-03-14 11:10:52"
      },
      {
        "id": "480f7b6c-3358-43f8-8284-3fccdbc6dc17",
        "action": "death",
        "result": "스켈레톤 나이트에게 패배 (40턴) | DMG: 123 | 피격: 274",
        "detail": "스켈레톤 나이트에게 패배 (40턴) | DMG: 123 | 피격: 274",
        "timestamp": "2026-03-14 11:10:25"
      },
      {
        "id": "c8373094-eeab-41cc-9615-4c64ecb760a7",
        "action": "death",
        "result": "스켈레톤 나이트에게 패배 (40턴) | DMG: 103 | 피격: 273",
        "detail": "스켈레톤 나이트에게 패배 (40턴) | DMG: 103 | 피격: 273",
        "timestamp": "2026-03-14 11:09:59"
      },
      {
        "id": "f41e65c9-aa73-405a-8c76-0ab23a15b890",
        "action": "death",
        "result": "스켈레톤 나이트에게 패배 (38턴) | DMG: 115 | 피격: 274",
        "detail": "스켈레톤 나이트에게 패배 (38턴) | DMG: 115 | 피격: 274",
        "timestamp": "2026-03-14 11:09:32"
      },
      {
        "id": "a6299af6-60e7-4d55-9920-b30d13c713e8",
        "action": "death",
        "result": "스켈레톤 나이트에게 패배 (38턴) | DMG: 105 | 피격: 274",
        "detail": "스켈레톤 나이트에게 패배 (38턴) | DMG: 105 | 피격: 274",
        "timestamp": "2026-03-14 11:09:06"
      },
      {
        "id": "8c1df869-56c7-471c-9ea7-b18d8f7ed9ab",
        "action": "death",
        "result": "스켈레톤 나이트에게 패배 (37턴) | DMG: 98 | 피격: 271",
        "detail": "스켈레톤 나이트에게 패배 (37턴) | DMG: 98 | 피격: 271",
        "timestamp": "2026-03-14 11:08:39"
      },
      {
        "id": "29b8539e-78c8-4d0d-b928-9a155b70076e",
        "action": "death",
        "result": "스켈레톤 나이트에게 패배 (40턴) | DMG: 117 | 피격: 275",
        "detail": "스켈레톤 나이트에게 패배 (40턴) | DMG: 117 | 피격: 275",
        "timestamp": "2026-03-14 11:08:12"
      },
      {
        "id": "c5f2ee4a-d5e7-429f-a005-623f384ec3c8",
        "action": "death",
        "result": "스켈레톤 나이트에게 패배 (38턴) | DMG: 115 | 피격: 270",
        "detail": "스켈레톤 나이트에게 패배 (38턴) | DMG: 115 | 피격: 270",
        "timestamp": "2026-03-14 11:07:46"
      },
      {
        "id": "17fa9337-e32e-4495-a39f-1d2ff3d18746",
        "action": "death",
        "result": "스켈레톤 나이트에게 패배 (38턴) | DMG: 106 | 피격: 271",
        "detail": "스켈레톤 나이트에게 패배 (38턴) | DMG: 106 | 피격: 271",
        "timestamp": "2026-03-14 11:07:19"
      },
      {
        "id": "3656e104-91ba-48a3-8472-f40f60948f71",
        "action": "death",
        "result": "스켈레톤 나이트에게 패배 (39턴) | DMG: 97 | 피격: 269",
        "detail": "스켈레톤 나이트에게 패배 (39턴) | DMG: 97 | 피격: 269",
        "timestamp": "2026-03-14 11:06:52"
      },
      {
        "id": "0233e5ba-4057-4002-aecc-a5e362f22397",
        "action": "death",
        "result": "스켈레톤 나이트에게 패배 (39턴) | DMG: 103 | 피격: 273",
        "detail": "스켈레톤 나이트에게 패배 (39턴) | DMG: 103 | 피격: 273",
        "timestamp": "2026-03-14 11:06:25"
      },
      {
        "id": "6b208f54-c28e-411b-b2e1-bd9cb0447d0f",
        "action": "death",
        "result": "스켈레톤 나이트에게 패배 (38턴) | DMG: 120 | 피격: 271",
        "detail": "스켈레톤 나이트에게 패배 (38턴) | DMG: 120 | 피격: 271",
        "timestamp": "2026-03-14 11:05:59"
      },
      {
        "id": "2b644c1b-5bc4-4dd4-8f5b-74ba859f266f",
        "action": "death",
        "result": "스켈레톤 나이트에게 패배 (41턴) | DMG: 113 | 피격: 276",
        "detail": "스켈레톤 나이트에게 패배 (41턴) | DMG: 113 | 피격: 276",
        "timestamp": "2026-03-14 11:05:32"
      },
      {
        "id": "97ae0482-bec1-4bad-96c5-5effc9b6cc8e",
        "action": "death",
        "result": "스켈레톤 나이트에게 패배 (39턴) | DMG: 95 | 피격: 273",
        "detail": "스켈레톤 나이트에게 패배 (39턴) | DMG: 95 | 피격: 273",
        "timestamp": "2026-03-14 11:05:05"
      },
      {
        "id": "3ebf59a4-70a1-4a47-9b61-090426716f80",
        "action": "death",
        "result": "스켈레톤 나이트에게 패배 (38턴) | DMG: 103 | 피격: 272",
        "detail": "스켈레톤 나이트에게 패배 (38턴) | DMG: 103 | 피격: 272",
        "timestamp": "2026-03-14 11:04:39"
      },
      {
        "id": "a157b77b-1d23-433c-a842-466b5712bfd5",
        "action": "death",
        "result": "스켈레톤 나이트에게 패배 (40턴) | DMG: 98 | 피격: 272",
        "detail": "스켈레톤 나이트에게 패배 (40턴) | DMG: 98 | 피격: 272",
        "timestamp": "2026-03-14 11:04:12"
      },
      {
        "id": "edd535c5-312b-478b-8919-1c7102c9703d",
        "action": "death",
        "result": "스켈레톤 나이트에게 패배 (39턴) | DMG: 114 | 피격: 269",
        "detail": "스켈레톤 나이트에게 패배 (39턴) | DMG: 114 | 피격: 269",
        "timestamp": "2026-03-14 11:03:45"
      }
    ],
    "pagination": {
      "page": 1,
      "limit": 100,
      "total": 22834,
      "total_pages": 229,
      "has_next": true,
      "has_prev": false
    }
  }
}