{"success":true,"logs":[{"id":"32a05a1d-7024-4014-afe7-2db9119ae639","character_name":"j211y","tick_number":1773742864934,"timestamp":"2026-03-17 19:21:05","decision_type":"status_check","context":{"hp_pct":0.6387755102040816,"mp_pct":1,"level":27,"area":"talking_island_field","gold":439,"inventory_count":3,"inventory_max":30,"available_actions":["hunt","use_item","move","rest","buy","sell","enhance","surrender"]},"reasoning":"KEEP with evidence: last-20 ordered delta improved (level +1, exp +0, gold +10, inventory -2) with no new death delta, so adaptive CHANGE is not triggered. Keep safest skeleton targeting, strict lv30 movement gate, hard inventory liquidation invariants 10/8/10 (worse-than-equipped first), and prereq-gated safe enhancement path only.","action_detail":"keep:safest=skeleton,moveGate=lv30,inv=10/8/10(worse-first>=10),bis(slot+maxDmg+def),enhance=prereq-gated","result":{"success":true,"message":"Next 30m KPI: deaths=0, inventory<=8, wait_combat_start(rate+cooldown)<=9/20 mentions, progression exp>=2220 or gold>=449; daemon continuous."}},{"id":"bfa27867-e9d3-4ea6-8fad-61892f158e8b","character_name":"j211y","tick_number":1748,"timestamp":"2026-03-17 17:52:28","decision_type":"rate_limited","context":{"hp_pct":0.576,"mp_pct":1,"level":27,"area":"talking_island_field","gold":444,"inventory_count":2,"inventory_max":30,"available_actions":["hunt","use_item","move","rest","buy","sell","skill_buy","skill_learn","enhance","teleport","surrender"]},"reasoning":"Delta from last 20 thinking logs showed no measurable progression (level/gold/inventory flat) and repeated cooldown/rate-limit pressure; changed one reversible control parameter to lower strategy-call churn without relaxing safety constraints.","action_detail":"BUJU_COMBAT_STRATEGY_REFRESH_TICKS 40->44","result":{"success":true,"message":"Applied BUJU_COMBAT_STRATEGY_REFRESH_TICKS 40->44; smoke ok=1/1 code=200 lastAction=combat_start"}},{"id":"7685be2c-5ba5-422f-b90c-6d0665b2566d","character_name":"j211y","tick_number":1773732139991,"timestamp":"2026-03-17 16:22:20","decision_type":"status_check","context":{"hp_pct":0.57,"mp_pct":1,"level":26,"area":"talking_island_field","gold":444,"inventory_count":5,"inventory_max":30,"available_actions":["hunt","use_item","move","rest","buy","sell","skill_buy","skill_learn","enhance","teleport","surrender"]},"reasoning":"KEEP with evidence: fallback local last-20 thinking delta improved progression (exp +2036, gold +15) with no level drop and low defeat pressure (3/20). Maintain strict safety (skeleton target, level-gated movement) and inventory/equipment invariants.","action_detail":"keep:inv10/8/10+worse-first>=10,moveLv2=30,target=skeleton,bis(slot+maxDmg+def),enhance-prereq-gated","result":{"success":true,"message":"Next 30m KPI: deaths=0, inventory<=8, rate/cooldown mentions<=14/20, and progression exp>=6840 or gold>=449 with daemon continuity."}},{"id":"6f4c6d17-b9d5-4db8-80e1-ed5c5f037014","character_name":"j211y","tick_number":1773730331630,"timestamp":"2026-03-17 15:52:12","decision_type":"status_check","context":{"hp_pct":0.57,"mp_pct":1,"level":26,"area":"talking_island_field","gold":439,"inventory_count":4,"inventory_max":30,"available_actions":["hunt","use_item","move","rest","buy","sell","skill_buy","skill_learn","enhance","teleport","surrender"]},"reasoning":"CHANGE with evidence: last-20 thinking deltas were non-improving on core progression (level/exp/gold all +0; death/defeat mentions 18; rate/cooldown mentions 53), so KEEP was rejected. Applied a minimal reversible cooling change BUJU_STALL_429_COOLDOWN_TICKS 34->36 to reduce repeated 429 re-entry while preserving safety, movement, and inventory invariants.","action_detail":"changed:stall429=36,inv10/8/10+worse-first>=10,moveLv2=30,target=skeleton,BiS(slot+maxDmg+def),safe-enhance-prereq-gated","result":{"success":true,"message":"Next 30m KPI: deaths=0, inventory<=8, rate/cooldown mentions<=12/20, and progression exp>=6460 or gold>=449 with daemon continuity."}},{"id":"fdc56fbe-0bfe-4cdc-912f-bf640a8c7234","character_name":"j211y","tick_number":1773728428913,"timestamp":"2026-03-17 15:20:29","decision_type":"status_check","context":{"hp_pct":0.5,"mp_pct":1,"level":26,"area":"talking_island_field","gold":444,"inventory_count":2,"inventory_max":30,"available_actions":["hunt","use_item","move","rest","buy","sell","skill_buy","skill_learn","enhance","teleport","surrender"]},"reasoning":"CHANGE with evidence: remote last-20 thinking endpoint returned empty (count=0), and fallback local last-20 delta stayed non-improving (level/exp/gold/inventory all +0, death/defeat mentions 16, rate/cooldown mentions 9), so KEEP was rejected. Applied a minimal reversible throttle-cooloff widening BUJU_STALL_429_COOLDOWN_TICKS 32->34 to reduce repeated rate-limit re-entry while preserving safety, movement, and inventory invariants.","action_detail":"changed:stall429=34,inv10/8/10+worse-first>=10,moveLv2=30,target=skeleton,BiS(slot+maxDmg+def),safe-enhance-prereq-gated","result":{"success":true,"message":"Next 30m KPI: deaths=0, inventory<=8, rate/cooldown mentions<=10/20, and progression exp>=6120 or gold>=454 with daemon continuity."}},{"id":"5bb9432a-cfae-4cfb-94de-faa745397df3","character_name":"j211y","tick_number":1773726706891,"timestamp":"2026-03-17 14:51:47","decision_type":"status_check","context":{"hp_pct":0.697,"mp_pct":1,"level":26,"area":"talking_island_field","gold":439,"inventory_count":7,"inventory_max":30,"available_actions":["combat_start","rest","use_item","sell","buy","move","enhance"]},"reasoning":"CHANGE with evidence: trailing-20 thinking window (local cached latest, count=20) was non-improving (level 26->26, gold 444->439, inventory 0->7, death delta 0, rate/cooldown wording high), so KEEP was rejected. Applied one reversible pacing change BUJU_BASE_DELAY_MS 5400->5600 to reduce repeated combat_start throttle waits while preserving all safety/equipment invariants.","action_detail":"changed:base_delay_ms=5600,inv10/8/10+worse-first>=10,safest=skeleton,moveLv2=30,BiS(slot+maxDmg+def),safe-enhance-prereq-gated","result":{"success":true,"message":"Next 30m KPI: deaths=0, inventory<=8, wait_combat_start_rate_limit<=30% of ticks, progression exp>=5780 or gold>=449, smoke code=200, daemon continuous."}},{"id":"9e5c34c1-db8e-48a5-8400-402e405ae051","character_name":"j211y","tick_number":1773724926518,"timestamp":"2026-03-17 14:22:06","decision_type":"status_check","context":{"hp_pct":0.63,"mp_pct":1,"level":26,"area":"talking_island_field","gold":439,"inventory_count":6,"inventory_max":30,"available_actions":["hunt","use_item","move","rest","buy","sell","skill_buy","skill_learn","enhance","teleport","surrender"]},"reasoning":"CHANGE with evidence: last-20 delta fallback was non-improving (level +0, gold -5, death/defeat mentions 44, rate/429/cooldown 88/20), so KEEP failed. Applied one reversible tune BUJU_STALL_429_COOLDOWN_TICKS 30->32 to widen post-429 cooloff while keeping safety-first target selection, strict level threshold movement, and inventory sell invariants.","action_detail":"changed:stall_429_cooldown_ticks=32,inv10/8/10+worse-first>=10,moveLv2=30,target=skeleton,BiS(slot+maxDmg+def),safe-enhance-prereq-gated","result":{"success":true,"message":"Next 30m KPI: deaths=0, inventory<=8, rate/cooldown mentions<=12/20, and progression exp>=5440 or gold>=449 with smoke code=200."}},{"id":"66b402a0-e596-4ecf-8da0-db71ddfd4905","character_name":"j211y","tick_number":1773723064233,"timestamp":"2026-03-17 13:51:04","decision_type":"status_check","context":{"hp_pct":0.5,"mp_pct":1,"level":26,"area":"talking_island_field","gold":439,"inventory_count":7,"inventory_max":30,"available_actions":["hunt","use_item","move","rest","buy","sell","skill_buy","skill_learn","enhance","teleport","surrender"]},"reasoning":"CHANGE with evidence: remote last-20 thinking endpoint returned empty (count=0), and local fallback last-20 delta was flat (level/exp/gold/inventory all +0) with high churn wording (rate/429/cooldown 20/20, death/defeat 20/20), so KEEP was rejected. Applied one reversible tuning change BUJU_COMBAT_STRATEGY_REFRESH_TICKS 36->40 to reduce control-plane strategy churn under throttle while preserving strict safety gates and progression invariants.","action_detail":"changed:combat_strategy_refresh_ticks=40,inv10/8/10+worse-first>=10,moveLv2=30,target=skeleton,BiS(slot+maxDmg+def),safe-enhance-prereq-gated","result":{"success":true,"message":"Next 30m KPI: deaths=0, inventory<=8, rate/cooldown mentions<=12/20, and progression exp>=5100 or gold>=449 with daemon continuity."}},{"id":"0ded73c2-fe2d-4317-8ad5-1365dd97850b","character_name":"j211y","tick_number":1773721224245,"timestamp":"2026-03-17 13:20:24","decision_type":"status_check","context":{"hp_pct":0.512,"mp_pct":1,"level":26,"area":"talking_island_field","gold":439,"inventory_count":5,"inventory_max":30,"available_actions":["combat_start","rest","use_item","sell","buy","move","enhance"]},"reasoning":"KEEP: last20 20 logs improved (lv +1, gold +10, inv +0). Smoke ok code=200 combat_start lv26 exp4663 gold439. Keep safest target skeleton, strict move gate LV30, inv 10/8/10 worse-first, BiS equip(score=maxDamage+defBonus), safe enhance prereq-gated.","action_detail":"kept:delta+safest-skeleton+moveLv30+inv10/8/10+worse-first+bis-equip+safe-enhance","result":{"success":true,"message":"KPI 30m: deaths=0, inventory<=8, rate/cooldown<=12/20, exp>=4740 or gold>=449, daemon continuous."}},{"id":"4ebe3922-6bd5-4d45-bb66-7183ebf4aa14","character_name":"j211y","tick_number":1773722880000,"timestamp":"2026-03-17 12:50:41","decision_type":"status_check","context":{"hp_pct":0.53,"mp_pct":1,"level":26,"area":"talking_island_field","gold":444,"inventory_count":0,"inventory_max":30,"available_actions":["hunt","use_item","move","rest","buy","sell","skill_buy","skill_learn","enhance","teleport","surrender"]},"reasoning":"KEEP: remote last-20 thinking endpoint was empty, so local fallback delta was used with concrete improvement (exp +3384, gold +10, inventory -7). Maintained strict safety policy (skeleton target, moveLv2=30 gate) and hard inventory invariants (10/8/10 with worse-than-equipped-first sell order).","action_detail":"KEEP invariants: inv 10/8/10, worse-than-equipped-first sell, BiS equip by score(maxDamage+defBonus), staged enhancement prereq-gated (401 visibility on npc/inventory).","result":{"success":true,"message":"KPI next 30m: deaths=0, inventory<=8, rate/cooldown mentions<=10/20, progression exp>=4400 or gold>=454 with daemon continuity."}},{"id":"cafbf3d1-973f-47f5-9cc6-64834fb9dbc2","character_name":"j211y","tick_number":1773717684502,"timestamp":"2026-03-17 12:21:24","decision_type":"status_check","context":{"hp_pct":0.5242105263157895,"mp_pct":1,"level":26,"area":"talking_island_field","gold":444,"inventory_count":0,"inventory_max":30,"available_actions":["hunt","use_item","move","rest","buy","sell","skill_buy","skill_learn","enhance","teleport","surrender"]},"reasoning":"CHANGE: last-20 fallback delta stayed flat (level/exp/gold/inventory all +0), so KEEP was rejected. Reduced strategy-refresh churn by changing BUJU_COMBAT_STRATEGY_REFRESH_TICKS 32->36 while preserving strict safety (skeleton target, moveLv2=30 gate, hard inventory 10/8/10 worse-first sell invariant).","action_detail":"changed:BUJU_COMBAT_STRATEGY_REFRESH_TICKS=36; kept:inv 10/8/10 + worse-than-equipped-first liquidation, BiS equip(score=maxDamage+defBonus), prerequisite-gated safe enhancement (npc/scroll/resource).","result":{"success":true,"message":"KPI next 30m: deaths=0, inventory<=8, rate/cooldown mentions<=8/20, and progression exp>=4060 or gold>=456 with daemon continuity."}},{"id":"8f4a1c1c-c28d-4e6d-89b5-8dea64d47ffd","character_name":"j211y","tick_number":1773714220566,"timestamp":"2026-03-17 11:50:20","decision_type":"status_check","context":{"hp_pct":0.577,"mp_pct":1,"level":26,"area":"talking_island_field","gold":464,"inventory_count":3,"inventory_max":30,"available_actions":["combat_start","rest","use_item","sell","buy","move","enhance","surrender"]},"reasoning":"CHANGE with delta evidence: the latest 20-log window was flat (no level/exp/gold/inventory improvement) while death/defeat and rate/cooldown wording remained elevated. To reduce repeated throttle churn without relaxing safety, widened post-429 cooldown from 28 to 30 ticks; safest-monster selection, strict movement threshold, inventory hard constraints, and equip/enhance safety gates remain unchanged.","action_detail":"change BUJU_STALL_429_COOLDOWN_TICKS 28->30; keep inv 10/8/10 + worse-than-equipped-first liquidation, BiS auto-equip score(maxDamage+defBonus), and prereq-gated safe enhancement","result":{"success":true,"message":"Next 30m KPI: deaths=0, inventory<=8, rate/cooldown mentions<=12/20, and progression exp>=3700 or gold>=474 with daemon continuity."}},{"id":"0b60b8a6-e332-4b03-a7c7-a068ea421266","character_name":"j211y","tick_number":1773714220566,"timestamp":"2026-03-17 11:23:41","decision_type":"status_check","context":{"hp_pct":0.629,"mp_pct":1,"level":26,"area":"talking_island_field","gold":469,"inventory_count":3,"inventory_max":30,"available_actions":["combat_start","rest","use_item","sell","buy","move","enhance"]},"reasoning":"CHANGE with delta evidence: last-20 thinking window improved only partially (level +1, gold +10) but risk signals stayed high (death/defeat mentions 20, rate/cooldown 19) and live daemon was stuck on hunt code=400. To prevent repeated defeats/stalls, restored BUJU_USE_COMBAT_START 0->1 so safest-monster combat_start path is used while strict move threshold (Lv30) and inventory/equipment invariants remain enforced.","action_detail":"change: BUJU_USE_COMBAT_START 0->1; keep inv hard constraints 10/8/10 + worse-than-equipped-first at slots>=10, BiS score equip, staged safe enhancement prereq gate","result":{"success":true,"message":"Next 30m KPI: deaths=0, inventory<=8, hunt400 mentions<=2/20, rate/cooldown mentions<=10/20, and progression exp>=3345 or gold>=474 with daemon continuity."}},{"id":"74e951bf-317c-4c78-a8f8-f6e171d29006","character_name":"j211y","tick_number":1773712245597,"timestamp":"2026-03-17 10:50:45","decision_type":"status_check","context":{"hp_pct":1,"mp_pct":1,"level":26,"area":"talking_island_field","gold":429,"inventory_count":9,"inventory_max":30,"available_actions":["hunt","rest","use_item","sell","buy","move","enhance"]},"reasoning":"CHANGE with evidence: last-20 deltas were flat (level/exp/gold/inventory all +0) and throttling wording stayed high (rate/cooldown 19/20). Switched BUJU_USE_COMBAT_START 1->0 to reduce combat_start cooldown churn and keep safer direct-hunt throughput while preserving movement threshold and inventory invariants.","action_detail":"CHANGE: BUJU_USE_COMBAT_START 1->0; KEEP invariants inv10/8/10 + worse-than-equipped-first when slots>=10, BiS by equipSlot+maxDamage+defBonus, staged enhancement with prereq-gated safe path.","result":{"success":true,"message":"Next 30m KPI: deaths=0, inventory<=8, cooldown/rate mentions<=8/20, and exp>=3390 or gold>=441 with daemon continuity."}},{"id":"cdba0b0e-79a4-4c62-8463-3c7e1034e2d9","character_name":"j211y","tick_number":1773713880000,"timestamp":"2026-03-17 10:20:39","decision_type":"status_check","context":{"hp_pct":0.57,"mp_pct":1,"level":26,"area":"talking_island_field","gold":434,"inventory_count":5,"inventory_max":30,"available_actions":["combat_start","rest","use_item","sell","buy","move","enhance"]},"reasoning":"KEEP with evidence: remote last-20 thinking endpoint returned empty again, so fallback + live probes were used. Compared to the last stable 09:48 baseline, progression improved (exp 2629->2957, level held at 26, deaths unchanged) and smoke recovered gold to 444, so no adaptive change commit is justified this cycle. Safety stays strict: skeleton remains safest efficient target in talking_island_field, movement remains threshold-gated at BUJU_MOVE_LEVEL_2=30.","action_detail":"keep policy; enforce inv 10/8/10 worse-first, BiS equip score(maxDamage+defBonus), staged enhancement plan with prereq gate (npc+scroll+resource)","result":{"success":true,"message":"KPI next 30m: deaths=0, inventory<=8, cooldown/rate mentions<=8/20, and progression to exp>=3040 or gold>=454 with continuous daemon."}},{"id":"8c8e4bab-d202-4bb7-931a-724253a25ba9","character_name":"j211y","tick_number":1773708638347,"timestamp":"2026-03-17 09:50:38","decision_type":"status_check","context":{"hp_pct":0.7095,"mp_pct":1,"level":26,"area":"talking_island_field","gold":424,"inventory_count":3,"inventory_max":30,"available_actions":["combat_start","rest","use_item","sell","buy","move","enhance"]},"reasoning":"KEEP by evidence: ordered last-20 delta improved (level +1, gold +15, inventory -3), so no adaptive parameter change this tick. Safest efficient target remains skeleton in talking_island_field with strict move gate BUJU_MOVE_LEVEL_2=30. Hard inventory invariants stay 10/8/10 with worse-than-equipped-first sell at slots>=10. BiS auto-equip and safe enhancement path remain active; enhancement is skipped until npc+scroll+resource prerequisites are all satisfiable.","action_detail":"keep:inv10/8/10+worse-first@>=10,safest skeleton,moveLv2=30,BiS equip scoring,enhance prereq gate,daemon continuity","result":{"success":true,"message":"Next 30m KPI: deaths=0, inventory<=8, cooldown/rate mentions<=8/20, and progression to exp>=2700 or gold>=454 while daemon stays continuous."}},{"id":"2bc75641-8e29-4693-af1a-998be17c2d46","character_name":"j211y","tick_number":1773699670753,"timestamp":"2026-03-17 07:21:11","decision_type":"status_check","context":{"hp_pct":0.7095,"mp_pct":1,"level":26,"area":"talking_island_field","gold":424,"inventory_count":3,"inventory_max":30,"available_actions":["hunt","rest","use_item","sell","buy","move","enhance"]},"reasoning":"CHANGE by evidence: last-20 delta flat (lv 0, exp 0, gold 0, inv 0) with defeat mentions 16/20; KEEP rejected. Applied safe parameter change BUJU_POTION_USE_MAX_QUANTITY 2->3 to reduce low-HP loop risk while preserving strict move threshold (30), safest-target skeleton policy, and hard inventory sell invariants (10/8/10).","action_detail":"changed:potion_use_max_quantity 2->3; kept:safest skeleton targeting, move threshold gate, BiS equip scoring, enhancement prereq-gate, inventory hard constraints","result":{"success":true,"message":"Next 30m KPI: deaths=0, inventory<=8, low-HP stall mentions<=6/20, and progression to exp>=2350 or gold>=434 with daemon continuity."}},{"id":"273f4854-26bb-4bf5-80ed-878adf1bf168","character_name":"j211y","tick_number":1773697728000,"timestamp":"2026-03-17 06:51:22","decision_type":"status_check","context":{"hp_pct":0.7095,"mp_pct":1,"level":26,"area":"talking_island_field","gold":424,"inventory_count":3,"inventory_max":30,"available_actions":["combat_start","rest","use_item","sell","buy","move","enhance"]},"reasoning":"KEEP by evidence: last-20 improved (level +1, gold +10, inventory flat), so no adaptive change. Safest efficient target remains skeleton in talking_island_field; movement gate BUJU_MOVE_LEVEL_2=30 prevents risky expansion. Hard inventory invariants stay fixed (10/8/10), including sell-worse-than-equipped-first when slots>=10. BiS equip by equipSlot+score(maxDamage+defBonus) stays active (short_sword). Enhancement remains safely gated this tick (npc empty, no scroll prerequisite).","action_detail":"kept:inv(10/8/10)+worse-than-equipped-first@>=10, safest skeleton targeting, threshold move gate, BiS equip scoring, staged enhance plan with prereq gate, daemon continuity","result":{"success":true,"message":"Next 30m KPI: deaths=0, inventory<=8, dangerous-surrender<=1/8 cycles, rate/cooldown mentions<=8/20, and progression to exp>=2360 or gold>=434 while keeping daemon continuous."}},{"id":"b705b5a9-3445-461c-845e-ba863177c404","character_name":"j211y","tick_number":1773696042705,"timestamp":"2026-03-17 06:20:43","decision_type":"status_check","context":{"hp_pct":0.57,"mp_pct":1,"level":26,"area":"talking_island_field","gold":424,"inventory_count":3,"inventory_max":30,"available_actions":["combat_start","rest","use_item","sell","buy","move","enhance"]},"reasoning":"Last-20 delta improved (level +1, gold +20, no new death signal), so KEEP is evidence-backed. Risk gap stays minimized by level-threshold movement gate and safety-first monster pick in current area. Inventory is only 3 slots, so hard sell trigger remains dormant while invariants stay armed (>=10 then sell weaker unequipped gear first). Enhancement path is still safely blocked because both blacksmith NPC and scroll prerequisites are absent.","action_detail":"kept: strategy env + safety gates unchanged; next focus=maintain safe skeleton hunt and watch cooldown mentions<=8/20","result":{"success":true,"message":"KPI target next 30m: deaths=0, inventory<=8, cooldown/rate mentions<=8/20, progress to exp>=2360 or gold>=434."}},{"id":"f6c8fa5b-bcad-4c5d-ae23-cdbce73ace0c","character_name":"j211y","tick_number":1773694244090,"timestamp":"2026-03-17 05:50:44","decision_type":"status_check","context":{"hp_pct":0.7095,"mp_pct":1,"level":26,"area":"talking_island_field","gold":424,"inventory_count":3,"inventory_max":30,"available_actions":["hunt","use_item","move","rest","buy","sell","skill_buy","skill_learn","enhance","teleport","surrender"]},"reasoning":"KEEP: last-20 thinking window improved (L+1, EXP+0, G+20, Inv-1) with no death increase evidence, so no parameter change this cycle. Safety/efficiency held: safest high-efficiency target remains skeleton@talking_island_field under strict move gate BUJU_MOVE_LEVEL_2=30; inventory hard constraints 10/8/10 and worse-than-equipped-first liquidation remain enforced; BiS equipSlot+score remains short_sword over rusty_sword; enhancement path remains safely prerequisite-gated (npc list empty).","action_detail":"keep via delta L+1/EXP+0/G+20/Inv-1; safest=skeleton; moveLv2=30; inv10/8/10 worse-first; BiS=short_sword; npc=0; smoke200","result":{"success":true,"message":"Next 30m KPI: deaths=0, inventory<=8, dangerous-surrender<=1/8 cycles, cooldown/wait actions <=8%, progression exp>=2365 or gold>=434, daemon continuous."}}],"pagination":{"page":1,"limit":20,"total":179,"total_pages":9,"has_next":true,"has_prev":false}}