{"success":true,"logs":[{"id":"7c0af521-8cef-4961-af72-3785465734d6","character_name":"j211y","tick_number":1773789723325,"timestamp":"2026-03-18 08:22:18","decision_type":"status_check","context":{"hp_pct":0.5841584158415841,"mp_pct":1,"level":28,"area":"talking_island_field","gold":439,"inventory_count":8,"inventory_max":30,"available_actions":["hunt","use_item","move","rest","buy","sell","enhance","surrender"]},"reasoning":"CHANGE by evidence: ordered last-20 deltas were mixed/non-improving (level +3, gold +30, inventory +6) with high risk/churn wording, so KEEP was rejected. Applied minimal reversible buy pacing change (buy cooldown 10->12) while preserving strict safety target/move gates and inventory invariants.","action_detail":"change:buyCooldown 10->12; keep inv 10/8/10+worse-first@>=10, BiS scoring, safest skeleton+moveLv30, prereq-gated enhance path, daemon continuity","result":{"success":true,"message":"Next 30m KPI: deaths=0, inventory<=8, surrender_dangerous_combat<=1/20, wait_combat_start_rate_limit+cooldown<=6/20 mentions, progression exp>=4430 or gold>=444 with daemon continuity."}},{"id":"cd03d413-9295-40b7-a54b-e6aee3e41ecd","character_name":"j211y","tick_number":1773806880000,"timestamp":"2026-03-18 07:51:13","decision_type":"status_check","context":{"hp_pct":0.7,"mp_pct":1,"level":28,"area":"talking_island_field","gold":439,"inventory_count":8,"inventory_max":30,"available_actions":["hunt","rest","use_item","sell","buy","move","enhance"]},"reasoning":"KEEP by evidence: ordered last-20 deltas improved on progression/economy/space (level +1, gold +10, inventory -2), so no adaptive parameter CHANGE this cycle. Risk wording is still elevated (death/defeat and rate/cooldown mentions), so keep strict safeguards: safest high-efficiency target skeleton in current area, movement gate at level 30, and no risk expansion.","action_detail":"kept inv 10/8/10+weaker-first@>=10, BiS equip scoring, safest skeleton + moveLv30 gate, prereq-gated enhancement path, daemon continuity","result":{"success":true,"message":"Next 30m KPI: deaths=0, inventory<=8, surrender_dangerous_combat<=1/20, wait_combat_start_rate_limit+cooldown<=6/20 mentions, and progression to exp>=4070 or gold>=444 with daemon continuity."}},{"id":"cc28d0af-12df-4679-8a4f-dfe785a6a5e0","character_name":"j211y","tick_number":1773786091582,"timestamp":"2026-03-18 07:21:31","decision_type":"status_check","context":{"hp_pct":0.535,"mp_pct":1,"level":28,"area":"talking_island_field","gold":444,"inventory_count":4,"inventory_max":30,"available_actions":["hunt","use_item","move","rest","buy","sell","enhance","surrender"]},"reasoning":"CHANGE with delta evidence: ordered last-20 thinking logs were mixed/non-improving (level +3 and gold +25 but inventory +7; death/defeat mentions 29, rate/429/cooldown mentions 61), so KEEP was rejected. Applied one reversible change BUJU_BUY_COOLDOWN_TICKS 8->10 to reduce buy-driven slot creep while preserving strict safety gates, movement threshold, inventory 10/8/10 invariants, and equipment progression policy.","action_detail":"change:buyCooldown 8->10; keep safest=skeleton, moveGate=lv30, inv=10/8/10(worse-than-equipped-first@>=10), BiS(slot+maxDamage+defBonus), staged enhance path prereq-gated(scroll+npc+resource).","result":{"success":true,"message":"Next 30m KPI: deaths=0, inventory<=8, surrender_dangerous_combat<=1/20, wait_combat_start_rate_limit+wait_combat_start_cooldown<=6/20 mentions, and progression exp>=3705 or gold>=449 while keeping live runner daemon continuous."}},{"id":"af308f24-bd80-4d0c-9e7e-d8a943772642","character_name":"j211y","tick_number":1773784342200,"timestamp":"2026-03-18 06:52:22","decision_type":"status_check","context":{"hp_pct":0.675,"mp_pct":1,"level":28,"area":"talking_island_field","gold":434,"inventory_count":9,"inventory_max":30,"available_actions":["hunt","use_item","move","rest","buy","sell","skill_buy","skill_learn","enhance","teleport","surrender"]},"reasoning":"CHANGE with delta evidence: ordered last-20 thinking logs were mixed/non-improving (level +1 and gold +5 but inventory +5; death/defeat mentions 28, rate/429/cooldown mentions 54), so KEEP was rejected. Applied one reversible pacing change BUJU_STALL_429_COOLDOWN_TICKS 50->52 while preserving strict safety gates, movement threshold, inventory 10/8/10 invariants, and equipment progression policy.","action_detail":"change:stall429Cooldown 50->52; keep safest=skeleton, moveGate=lv30, inv=10/8/10(worse-than-equipped-first@>=10), BiS(slot+maxDamage+defBonus), staged enhance path prereq-gated(scroll+npc+resource).","result":{"success":true,"message":"Next 30m KPI: deaths=0, inventory<=8, surrender_dangerous_combat<=1/20, wait_combat_start_rate_limit+wait_combat_start_cooldown<=7/20 mentions, and progression exp>=3350 or gold>=444 while keeping live runner daemon continuous."}},{"id":"f5ae76e5-a0a0-4367-8aa5-0861935e8d13","character_name":"j211y","tick_number":1773778909532,"timestamp":"2026-03-18 05:21:49","decision_type":"status_check","context":{"hp_pct":0.62,"mp_pct":1,"level":28,"area":"talking_island_field","gold":444,"inventory_count":8,"inventory_max":30,"available_actions":["hunt","use_item","move","rest","buy","sell","skill_buy","skill_learn","enhance","teleport","surrender"]},"reasoning":"CHANGE with delta evidence: last-20 thinking window was mixed/non-improving (level +1 but gold -10 and inventory +7; death/defeat mentions 26, rate/429/cooldown mentions 51; exp unavailable in thinking context), so KEEP was rejected. Applied one reversible pacing change BUJU_STALL_429_COOLDOWN_TICKS 44->46 while preserving strict safety gates, level-threshold movement, inventory hard constraints 10/8/10, and equipment progression invariants.","action_detail":"change:stall429Cooldown 44->46; keep safest=skeleton, moveGate=lv30, inv=10/8/10(worse-than-equipped-first@>=10), BiS(slot+maxDamage+defBonus), staged enhance path prereq-gated(scroll+npc+resource).","result":{"success":true,"message":"Next 30m KPI: deaths=0, inventory<=8, surrender_dangerous_combat<=1/20, wait_combat_start_rate_limit+wait_combat_start_cooldown<=8/20 mentions, and progression exp>=2270 or gold>=449 while keeping live runner daemon continuous."}},{"id":"197c887f-4e13-4c9b-9e9f-4f036123b43b","character_name":"j211y","tick_number":1773777173477,"timestamp":"2026-03-18 04:52:53","decision_type":"status_check","context":{"hp_pct":0.57,"mp_pct":1,"level":28,"area":"talking_island_field","gold":434,"inventory_count":9,"inventory_max":30,"available_actions":["hunt","use_item","move","rest","buy","sell","skill_buy","skill_learn","enhance","teleport","surrender"]},"reasoning":"CHANGE with delta evidence: last-20 thinking window was mixed/non-improving (level +2 but gold -10 and inventory +4; death/defeat mentions 15, rate/429/cooldown mentions 13), so KEEP was rejected. Applied one reversible pacing change BUJU_BACKOFF_BASE_MS 2100->2200 while preserving strict safety gates, level-threshold movement, inventory hard constraints 10/8/10, and equipment progression invariants.","action_detail":"change:backoffBase 2100->2200; keep safest=skeleton, moveGate=lv30, inv=10/8/10(worse-than-equipped-first@>=10), BiS(slot+maxDamage+defBonus), staged enhance path prereq-gated(scroll+npc+resource).","result":{"success":true,"message":"Next 30m KPI: deaths=0, inventory<=8, surrender_dangerous_combat<=1/20, wait_combat_start_rate_limit+wait_combat_start_cooldown<=9/20 mentions, and progression exp>=1910 or gold>=444 while keeping live runner daemon continuous."}},{"id":"ebe4776e-2b02-400c-8bc6-ce3840cb2ad2","character_name":"j211y","tick_number":1773775297010,"timestamp":"2026-03-18 04:21:37","decision_type":"status_check","context":{"hp_pct":0.5782178217821783,"mp_pct":1,"level":28,"area":"talking_island_field","gold":434,"inventory_count":9,"inventory_max":30,"available_actions":["hunt","use_item","move","rest","buy","sell","skill_buy","skill_learn","enhance","teleport","surrender"]},"reasoning":"CHANGE with delta evidence: last-20 thinking window was non-improving (level +0, exp +0, gold +0, inventory +0; death/defeat mentions 19; rate/429/cooldown mentions 20), so KEEP was rejected. Applied one reversible pacing change BUJU_BACKOFF_BASE_MS 2000->2100 while preserving strict safety gates, level-threshold movement, inventory hard constraints 10/8/10, and equipment progression invariants.","action_detail":"change:backoffBase 2000->2100; keep safest=skeleton, moveGate=lv30, inv=10/8/10(worse-than-equipped-first@>=10), BiS(slot+maxDamage+defBonus), staged enhance path prereq-gated(scroll+npc+resource).","result":{"success":true,"message":"Next 30m KPI: deaths=0, inventory<=8, surrender_dangerous_combat<=1/20, wait_combat_start_rate_limit+wait_combat_start_cooldown<=10/20 mentions, and progression exp>=1540 or gold>=449 while keeping live runner daemon continuous."}},{"id":"7af06221-8db5-47cc-bae2-0422adc4b92d","character_name":"j211y","tick_number":1773773522120,"timestamp":"2026-03-18 03:52:04","decision_type":"status_check","context":{"hp_pct":0.5405940594059406,"mp_pct":1,"level":28,"area":"talking_island_field","gold":439,"inventory_count":6,"inventory_max":30,"available_actions":["hunt","use_item","move","rest","buy","sell","skill_buy","skill_learn","enhance","teleport","surrender"]},"reasoning":"CHANGE with delta evidence: last-20 thinking window was non-improving (2026-03-17 15:20:29 -> 2026-03-18 03:21:56; level +2, exp +0, gold -5, inventory +5, death/defeat mentions 25, rate/429/cooldown mentions 53), so KEEP was rejected. Applied one reversible cooldown-spacing change BUJU_BACKOFF_BASE_MS 1900->2000 while preserving strict safety gates, level-threshold movement, inventory hard constraints 10/8/10, and equipment progression invariants.","action_detail":"change:backoffBase 1900->2000; keep safest=skeleton, moveGate=lv30, inv=10/8/10(worse-than-equipped-first@>=10), BiS(slot+maxDamage+defBonus), staged enhance path prereq-gated(scroll+npc+resource).","result":{"success":true,"message":"Next 30m KPI: deaths=0, inventory<=8, surrender_dangerous_combat<=1/20, wait_combat_start_rate_limit+wait_combat_start_cooldown<=10/20 mentions, and progression exp>=1180 or gold>=444 while keeping live runner daemon continuous."}},{"id":"d0c96ef7-d4e9-4d2b-90dd-a41f4e6f953c","character_name":"j211y","tick_number":1773771713759,"timestamp":"2026-03-18 03:21:56","decision_type":"status_check","context":{"hp_pct":0.5801980198019802,"mp_pct":1,"level":28,"area":"talking_island_field","gold":439,"inventory_count":7,"inventory_max":30,"available_actions":["hunt","use_item","move","rest","buy","sell","skill_buy","skill_learn","enhance","teleport","surrender"]},"reasoning":"KEEP with delta evidence: last-20 thinking window improved (level +2, gold +5, inventory -1) across 2026-03-17 14:51:47 -> 2026-03-18 02:51:51; safety pressure did not worsen (death mentions 15/20, rate-limit mentions 13/20). Keep safest high-efficiency target skeleton among currently available monsters, strict movement threshold gate at lv30, and hard inventory invariants 10/8/10 with worse-than-equipped-first liquidation at slots>=10.","action_detail":"keep:safest=skeleton,moveGate=lv30,inv=10/8/10(worse-first>=10),BiS=equipSlot+maxDamage+defBonus,enhance=min-safe-path(prereq-gated:scroll+npc+resource)","result":{"success":true,"message":"Next 30m KPI: deaths=0, inventory<=8, surrender_dangerous_combat<=1/20, wait_combat_start_rate_limit+wait_combat_start_cooldown<=10/20 mentions, progression exp>=810 or gold>=444; keep live runner daemon continuous."}},{"id":"cee6d99d-3038-47a6-90ed-73d2370810bd","character_name":"j211y","tick_number":1773769769000,"timestamp":"2026-03-18 02:51:51","decision_type":"status_check","context":{"hp_pct":1,"mp_pct":1,"level":28,"area":"talking_island_field","gold":444,"inventory_count":6,"inventory_max":30,"available_actions":["hunt","use_item","move","rest","buy","sell","enhance","surrender"]},"reasoning":"CHANGE with delta evidence: remote thinking last-20 returned empty, and local ordered fallback delta was flat (level +0, exp +0, gold +0, inventory +0), so KEEP was rejected by adaptive policy. Applied one reversible pacing change (BUJU_BACKOFF_BASE_MS 1800->1900) to reduce repeated cooldown/rate-limit re-entry while preserving strict risk gates.","action_detail":"change:backoff_base_ms=1900, safest=skeleton, moveGate=lv30, inv=10/8/10(worse-than-equipped-first>=10), BiS=equipSlot+maxDamage+defBonus, enhance=min-safe-path(prereq-gated:scroll+npc+resource)","result":{"success":true,"message":"Next 30m KPI: deaths=0, inventory<=8, surrender_dangerous_combat<=1/20, wait_combat_start(rate+cooldown)<=10/20 mentions, progression exp>=440 or gold>=449; keep live runner daemon continuous."}},{"id":"037cc4b5-de3a-4d4b-8bae-099f79acd191","character_name":"j211y","tick_number":1773768096579,"timestamp":"2026-03-18 02:21:36","decision_type":"status_check","context":{"hp_pct":0.59,"mp_pct":1,"level":27,"area":"talking_island_field","gold":439,"inventory_count":4,"inventory_max":30,"available_actions":["hunt","use_item","move","rest","buy","sell","enhance","surrender"]},"reasoning":"KEEP with delta evidence: last-20 thinking window improved on progression signal (level +1, gold +5) and fresh 30-minute status delta still gained EXP (+354) with no new death burst, so CHANGE is not triggered this tick. Hard invariants stay fixed (inventory 10/8/10, worse-than-equipped-first when slots>=10), safest high-efficiency target remains skeleton in talking_island_field, and movement remains threshold-gated at lv30 to prevent repeated defeat loops.","action_detail":"keep:safest=skeleton,moveGate=lv30,inv=10/8/10(worse-than-equipped-first>=10),BiS=equipSlot+maxDamage+defBonus,enhance=min-safe-path(prereq-gated:scroll+npc+resource)","result":{"success":true,"message":"Next 30m KPI: deaths=0, inventory<=8, surrender_dangerous_combat<=1/20, wait_combat_start(rate+cooldown)<=10/20 mentions, progression exp>=7350 or gold>=449; keep live runner daemon continuous."}},{"id":"83c82a5c-f5cb-4acd-ae77-5904c6567d1a","character_name":"j211y","tick_number":1773766327136,"timestamp":"2026-03-18 01:52:07","decision_type":"status_check","context":{"hp_pct":0.58,"mp_pct":1,"level":27,"area":"talking_island_field","gold":444,"inventory_count":8,"inventory_max":30,"available_actions":["hunt","use_item","move","rest","buy","sell","enhance","surrender"]},"reasoning":"KEEP with fallback evidence: remote last-20 thinking feed is empty (count=0), so local ordered last-20 posts were delta-scored and still show net progression (level +1, exp +6167, inventory -3) despite gold -10 and high cooldown wording. Safety remains strict: safest high-efficiency target among current monsters is skeleton in talking_island_field, and movement stays threshold-gated (moveLv2=30) to avoid repeated defeat loops.","action_detail":"keep:safest=skeleton,moveGate=lv30,inv=10/8/10(worse-than-equipped-first>=10),BiS=equipSlot+maxDamage+defBonus,enhance=min-safe-path(prereq-gated)","result":{"success":true,"message":"Next 30m KPI: deaths=0, inventory<=8, dangerous_surrender<=1/20, wait_combat_start(rate+cooldown)<=10/20 mentions, progression exp>=7010 or gold>=454; keep live runner daemon continuous."}},{"id":"fbf31dbf-ab27-4b32-8d4e-7db3593710f8","character_name":"j211y","tick_number":1773764461521,"timestamp":"2026-03-18 01:21:02","decision_type":"status_check","context":{"hp_pct":1,"mp_pct":1,"level":27,"area":"talking_island_field","gold":439,"inventory_count":6,"inventory_max":30,"available_actions":["hunt","use_item","move","rest","buy","sell","enhance","surrender"]},"reasoning":"KEEP with delta evidence: local ordered last-20 improved (level +2, gold +30, inventory +0), live state advanced since prior run (exp 6547, gold 439), and no fresh death burst (latest death still 2026-03-15). Safest available target remains skeleton over rabbit in talking_island_field; risk gate keeps movement locked until lv30 to avoid repeat defeats.","action_detail":"keep:safest=skeleton, moveGate=lv30, inv=10/8/10(worse-than-equipped-first at>=10), BiS(slot+maxDmg+def), enhance=prereq-gated(scroll+npc+resource)","result":{"success":true,"message":"Next 30m KPI: deaths=0, inventory<=8, surrender_dangerous_combat<=1/20, wait_combat_start_rate_limit+cooldown<=10/20, progression exp>=6620 or gold>=449; daemon continuous."}},{"id":"2dc97158-552a-42d8-9f2b-20d5e2fc979c","character_name":"j211y","tick_number":1773762676198,"timestamp":"2026-03-18 00:51:16","decision_type":"status_check","context":{"hp_pct":0.8816326530612245,"mp_pct":1,"level":27,"area":"talking_island_field","gold":429,"inventory_count":2,"inventory_max":30,"available_actions":["hunt","use_item","move","rest","buy","sell","skill_buy","skill_learn","enhance","teleport","surrender"]},"reasoning":"CHANGE with delta evidence: last-20 thinking logs regressed (level +1, gold -10, inventory +4) and churn wording stayed high (death/defeat 21, rate/429/cooldown 62). KEEP rejected by adaptive rule; applied one reversible cooloff widening to reduce repeated 429 re-entry while preserving safety/movement/inventory/equipment invariants.","action_detail":"change:BUJU_STALL_429_COOLDOWN_TICKS 42->44; keep safest=skeleton, moveGate=lv30, inv=10/8/10(worse-than-equipped-first when slots>=10), bis(slot+maxDmg+def), enhance=prereq-gated(scroll+npc+resource)","result":{"success":true,"message":"Next 30m KPI: deaths=0, inventory<=8, surrender_dangerous_combat<=1/20, wait_combat_start_rate_limit+cooldown<=9/20 mentions, progression exp>=6250 or gold>=449; daemon continuous."}},{"id":"51b14e03-99ce-4914-a2fb-358c8ac46371","character_name":"j211y","tick_number":1773760852598,"timestamp":"2026-03-18 00:20:53","decision_type":"status_check","context":{"hp_pct":0.5959183673469388,"mp_pct":1,"level":27,"area":"talking_island_field","gold":434,"inventory_count":4,"inventory_max":30,"available_actions":["hunt","use_item","move","rest","buy","sell","enhance","surrender"]},"reasoning":"CHANGE with delta evidence: last-20 thinking logs regressed (level +0, gold -5, inventory +4) and churn wording stayed high (death/defeat 21, rate/429/cooldown 49). KEEP rejected by adaptive rule; applied one reversible cooloff widening to reduce repeated 429 re-entry while preserving safety/movement/inventory/equipment invariants.","action_detail":"change:BUJU_STALL_429_COOLDOWN_TICKS 40->42; keep safest=skeleton, moveGate=lv30, inv=10/8/10(worse-than-equipped-first when slots>=10), bis(slot+maxDmg+def), enhance=prereq-gated(scroll+npc+resource)","result":{"success":true,"message":"Next 30m KPI: deaths=0, inventory<=8, surrender_dangerous_combat<=1/20, wait_combat_start_rate_limit+cooldown<=9/20 mentions, progression exp>=5870 or gold>=449; daemon continuous."}},{"id":"69b4393a-065d-4adb-bee1-a8a285c1cfee","character_name":"j211y","tick_number":1773759090765,"timestamp":"2026-03-17 23:51:31","decision_type":"status_check","context":{"hp_pct":0.547,"mp_pct":1,"level":27,"area":"talking_island_field","gold":439,"inventory_count":6,"inventory_max":30,"available_actions":["hunt","use_item","move","rest","buy","sell","skill_buy","skill_learn","enhance","teleport","surrender"]},"reasoning":"KEEP with evidence: fallback last-20 delta improved (level +1, gold +5) with no exp regression; risk mentions are elevated but stable. Maintain safest target skeleton in talking_island_field, strict move gate lv30, hard inventory invariants 10/8/10 with worse-than-equipped-first liquidation, and prerequisite-gated safe enhancement path (npc list empty).","action_detail":"keep:safest=skeleton,moveGate=lv30,inv=10/8/10,worse-first>=10,bis(slot+maxDmg+def),enhance=prereq-gated","result":{"success":true,"message":"Next 30m KPI: deaths=0, inventory<=8, danger-surrender<=1/20, rate/cooldown mentions<=10/20, progression exp>=5510 or gold>=449; daemon continuous."}},{"id":"1072c30e-f55b-4e25-b336-c3d1122b3f6f","character_name":"j211y","tick_number":1773757327353,"timestamp":"2026-03-17 23:22:07","decision_type":"status_check","context":{"hp_pct":0.851,"mp_pct":1,"level":27,"area":"talking_island_field","gold":444,"inventory_count":8,"inventory_max":30,"available_actions":["hunt","use_item","move","rest","buy","sell","enhance","surrender"]},"reasoning":"KEEP with delta evidence: last-20 ordered window improved (level +1, gold +5, inventory -1) and fresh 30m status baseline improved (exp +372, gold +10, level +0). Keep safest skeleton targeting, strict lv30 movement gate, hard inventory invariants 10/8/10 with worse-than-equipped-first liquidation, and prereq-gated safe enhancement path.","action_detail":"keep:safest=skeleton,moveGate=lv30,inv=10/8/10(worse-first>=10),bis(slot+maxDmg+def),enhance=prereq-gated","result":{"success":true,"message":"Next 30m KPI: deaths=0, inventory<=8, surrender_dangerous_combat<=1/20, wait_combat_start(rate+cooldown)<=8/20 mentions, progression exp>=5140 or gold>=454; daemon continuous."}},{"id":"ee8deba7-7c4f-4c81-b5eb-37ae76e67051","character_name":"j211y","tick_number":1773755497640,"timestamp":"2026-03-17 22:51:37","decision_type":"status_check","context":{"hp_pct":0,"mp_pct":0,"level":27,"area":"talking_island_field","gold":434,"inventory_count":8,"inventory_max":30,"available_actions":["hunt","use_item","move","rest","buy","sell","enhance","surrender"]},"reasoning":"CHANGE with delta evidence: remote last-20 thinking window (count=20) was non-improving (level -1, exp +0, gold -5) with persistent risk/churn wording (death/defeat 19, rate/429/cooldown 20). Rejected KEEP and applied minimal reversible pacing change BUJU_BACKOFF_BASE_MS 1700->1800 to reduce immediate retry collisions while preserving strict safety gates, safest-target policy, and movement threshold.","action_detail":"change:BUJU_BACKOFF_BASE_MS 1700->1800; keep inv=10/8/10(worse-first>=10), equip=bis-score(maxDamage+defBonus), safest=skeleton, moveGate=lv30, enhance=prereq-gated(scroll+npc+resource)","result":{"success":true,"message":"Next 30m KPI: deaths=0, inventory<=8, surrender_dangerous_combat<=1/20, wait_combat_start_rate_limit+cooldown<=8/20 mentions, and progression exp>=4780 or gold>=449 while daemon stays continuous."}},{"id":"8226a564-003b-4f7e-95b5-1f93b033f539","character_name":"j211y","tick_number":1773753620000,"timestamp":"2026-03-17 22:22:11","decision_type":"status_check","context":{"hp_pct":0.657,"mp_pct":1,"level":27,"area":"talking_island_field","gold":439,"inventory_count":8,"inventory_max":30,"available_actions":["hunt","use_item","move","rest","buy","sell","enhance","surrender"]},"reasoning":"CHANGE with delta evidence: remote last-20 window (09:50:38->21:51:54, count=20) improved level/gold (+1/+10) but regressed inventory pressure (+5) with continued throttle wording (death/defeat 40, rate/429/cooldown 99). Rejected KEEP and applied a minimal reversible pacing change BUJU_BACKOFF_BASE_MS 1500->1700 to reduce rapid 429 re-entry while preserving strict safety gates, safest-target policy, and move threshold.","action_detail":"change:BUJU_BACKOFF_BASE_MS 1500->1700; keep inv=10/8/10(worse-first>=10), equip=bis-score(maxDamage+defBonus), safest=skeleton, moveGate=lv30, enhance=prereq-gated(scroll+npc+resource)","result":{"success":true,"message":"Next 30m KPI: deaths=0, inventory<=8, surrender_dangerous_combat<=1/20, wait_combat_start_rate_limit+cooldown<=8/20 mentions, and progression exp>=4420 or gold>=449 while daemon stays continuous."}},{"id":"49d80bfa-b252-45f4-af94-fe9dbf6763e0","character_name":"j211y","tick_number":1773751914557,"timestamp":"2026-03-17 21:51:54","decision_type":"status_check","context":{"hp_pct":0,"mp_pct":0,"level":27,"area":"talking_island_field","gold":434,"inventory_count":8,"inventory_max":30,"available_actions":["hunt","use_item","move","rest","buy","sell","enhance","surrender"]},"reasoning":"CHANGE with delta evidence: fallback local last-20 posts (0948->2125, count=20) were flat (level/exp/gold +0) with persistent defeat/rate wording (death 12, rate 11). Raised combat strategy refresh interval 48->52 to reduce control-plane churn while keeping strict risk gates, safest-target policy, and lv30 move threshold.","action_detail":"change:BUJU_COMBAT_STRATEGY_REFRESH_TICKS 48->52; keep inv=10/8/10(worse-first>=10), equip=bis-score, enhance=prereq-gated, safest target=skeleton","result":{"success":true,"message":"Next 30m KPI: deaths=0, inventory<=8, surrender_dangerous_combat<=1/20, wait_combat_start_rate_limit+cooldown<=8/20, and progression exp>=4040 or gold>=444 while daemon stays continuous."}}],"pagination":{"page":1,"limit":20,"total":202,"total_pages":11,"has_next":true,"has_prev":false}}